2017-06-15 11:42:49.031 INFO  (main) [   ] o.e.j.s.Server jetty-9.3.14.v20161028
2017-06-15 11:42:49.381 INFO  (main) [   ] o.a.s.s.SolrDispatchFilter  ___      _       Welcome to Apache Solr™ version 6.6.0
2017-06-15 11:42:49.381 INFO  (main) [   ] o.a.s.s.SolrDispatchFilter / __| ___| |_ _   Starting in standalone mode on port 8983
2017-06-15 11:42:49.381 INFO  (main) [   ] o.a.s.s.SolrDispatchFilter \__ \/ _ \ | '_|  Install dir: /home/kyle/dev/solr-6.6.0
2017-06-15 11:42:49.397 INFO  (main) [   ] o.a.s.s.SolrDispatchFilter |___/\___/_|_|    Start time: 2017-06-15T11:42:49.382Z
2017-06-15 11:42:49.397 INFO  (main) [   ] o.a.s.s.StartupLoggingUtils Property solr.log.muteconsole given. Muting ConsoleAppender named CONSOLE
2017-06-15 11:42:49.411 INFO  (main) [   ] o.a.s.c.SolrResourceLoader Using system property solr.solr.home: /home/kyle/dev/solr-6.6.0/server/solr
2017-06-15 11:42:49.416 INFO  (main) [   ] o.a.s.c.SolrXmlConfig Loading container configuration from /home/kyle/dev/solr-6.6.0/server/solr/solr.xml
2017-06-15 11:42:49.800 INFO  (main) [   ] o.a.s.u.UpdateShardHandler Creating UpdateShardHandler HTTP client with params: socketTimeout=600000&connTimeout=60000&retry=true
2017-06-15 11:42:49.934 INFO  (main) [   ] o.a.s.c.CorePropertiesLocator Found 0 core definitions underneath /home/kyle/dev/solr-6.6.0/server/solr
2017-06-15 11:42:49.999 INFO  (main) [   ] o.e.j.s.Server Started @1400ms
2017-06-15 11:47:42.071 INFO  (qtp1205044462-20) [   ] o.a.s.c.TransientSolrCoreCacheDefault Allocating transient cache for 2147483647 transient cores
2017-06-15 11:47:42.843 INFO  (qtp1205044462-20) [   ] o.a.s.s.HttpSolrCall [admin] webapp=null path=/admin/cores params={indexInfo=false&wt=json&_=1497527262469} status=0 QTime=54
2017-06-15 11:47:42.870 INFO  (qtp1205044462-17) [   ] o.a.s.s.HttpSolrCall [admin] webapp=null path=/admin/info/system params={wt=json&_=1497527262469} status=0 QTime=81
2017-06-15 11:47:42.882 INFO  (qtp1205044462-18) [   ] o.a.s.s.HttpSolrCall [admin] webapp=null path=/admin/info/system params={wt=json&_=1497527262469} status=0 QTime=97
2017-06-15 11:47:48.701 INFO  (qtp1205044462-21) [   ] o.a.s.s.HttpSolrCall [admin] webapp=null path=/admin/cores params={indexInfo=false&wt=json&_=1497527262469} status=0 QTime=0
2017-06-15 11:47:48.708 INFO  (qtp1205044462-16) [   ] o.a.s.s.HttpSolrCall [admin] webapp=null path=/admin/cores params={wt=json&_=1497527262469} status=0 QTime=0
2017-06-15 11:47:48.710 INFO  (qtp1205044462-13) [   ] o.a.s.s.HttpSolrCall [admin] webapp=null path=/admin/info/system params={wt=json&_=1497527262469} status=0 QTime=9
2017-06-15 12:50:39.205 INFO  (qtp1205044462-18) [   ] o.a.s.s.HttpSolrCall [admin] webapp=null path=/admin/cores params={indexInfo=false&wt=json&_=1497531038958} status=0 QTime=2
2017-06-15 12:50:39.214 INFO  (qtp1205044462-19) [   ] o.a.s.s.HttpSolrCall [admin] webapp=null path=/admin/cores params={wt=json&_=1497531038958} status=0 QTime=0
2017-06-15 12:50:39.229 INFO  (qtp1205044462-17) [   ] o.a.s.s.HttpSolrCall [admin] webapp=null path=/admin/info/system params={wt=json&_=1497531038959} status=0 QTime=24
2017-06-15 12:51:08.594 INFO  (qtp1205044462-12) [   ] o.a.s.s.HttpSolrCall [admin] webapp=null path=/admin/info/system params={wt=json} status=0 QTime=11
2017-06-15 12:51:08.630 INFO  (qtp1205044462-19) [   ] o.a.s.s.HttpSolrCall [admin] webapp=null path=/admin/info/system params={wt=json} status=0 QTime=4
2017-06-15 12:51:08.635 INFO  (qtp1205044462-17) [   ] o.a.s.s.HttpSolrCall [admin] webapp=null path=/admin/cores params={core=nutch&action=STATUS&wt=json} status=0 QTime=0
2017-06-15 12:51:08.674 INFO  (qtp1205044462-12) [   ] o.a.s.h.a.CoreAdminOperation core create command name=nutch&action=CREATE&instanceDir=nutch&wt=json
2017-06-15 12:51:08.742 INFO  (qtp1205044462-12) [   x:nutch] o.a.s.c.SolrResourceLoader [nutch] Added 51 libs to classloader, from paths: [/home/kyle/dev/solr-6.6.0/contrib/clustering/lib, /home/kyle/dev/solr-6.6.0/contrib/extraction/lib, /home/kyle/dev/solr-6.6.0/contrib/langid/lib, /home/kyle/dev/solr-6.6.0/contrib/velocity/lib, /home/kyle/dev/solr-6.6.0/dist]
2017-06-15 12:51:08.946 INFO  (qtp1205044462-12) [   x:nutch] o.a.s.c.SolrConfig Using Lucene MatchVersion: 6.6.0
2017-06-15 12:51:09.161 INFO  (qtp1205044462-12) [   x:nutch] o.a.s.s.IndexSchema [nutch] Schema name=example-data-driven-schema
2017-06-15 12:51:09.707 INFO  (qtp1205044462-12) [   x:nutch] o.a.s.s.IndexSchema Loaded schema example-data-driven-schema/1.6 with uniqueid field id
2017-06-15 12:51:09.744 INFO  (qtp1205044462-12) [   x:nutch] o.a.s.c.CoreContainer Creating SolrCore 'nutch' using configuration from instancedir /home/kyle/dev/solr-6.6.0/server/solr/nutch, trusted=true
2017-06-15 12:51:09.768 INFO  (qtp1205044462-12) [   x:nutch] o.a.s.c.SolrCore solr.RecoveryStrategy.Builder
2017-06-15 12:51:09.773 INFO  (qtp1205044462-12) [   x:nutch] o.a.s.c.SolrCore [[nutch] ] Opening new SolrCore at [/home/kyle/dev/solr-6.6.0/server/solr/nutch], dataDir=[/home/kyle/dev/solr-6.6.0/server/solr/nutch/data/]
2017-06-15 12:51:09.876 INFO  (qtp1205044462-12) [   x:nutch] o.a.s.r.XSLTResponseWriter xsltCacheLifetimeSeconds=5
2017-06-15 12:51:10.204 INFO  (qtp1205044462-12) [   x:nutch] o.a.s.u.UpdateHandler Using UpdateLog implementation: org.apache.solr.update.UpdateLog
2017-06-15 12:51:10.204 INFO  (qtp1205044462-12) [   x:nutch] o.a.s.u.UpdateLog Initializing UpdateLog: dataDir= defaultSyncLevel=FLUSH numRecordsToKeep=100 maxNumLogsToKeep=10 numVersionBuckets=65536
2017-06-15 12:51:10.218 INFO  (qtp1205044462-12) [   x:nutch] o.a.s.u.CommitTracker Hard AutoCommit: if uncommited for 15000ms; 
2017-06-15 12:51:10.219 INFO  (qtp1205044462-12) [   x:nutch] o.a.s.u.CommitTracker Soft AutoCommit: disabled
2017-06-15 12:51:10.247 INFO  (qtp1205044462-12) [   x:nutch] o.a.s.s.SolrIndexSearcher Opening [Searcher@663a2536[nutch] main]
2017-06-15 12:51:10.261 INFO  (qtp1205044462-12) [   x:nutch] o.a.s.r.ManagedResourceStorage File-based storage initialized to use dir: /home/kyle/dev/solr-6.6.0/server/solr/nutch/conf
2017-06-15 12:51:10.280 INFO  (qtp1205044462-12) [   x:nutch] o.a.s.h.c.SpellCheckComponent Initializing spell checkers
2017-06-15 12:51:10.287 INFO  (qtp1205044462-12) [   x:nutch] o.a.s.s.DirectSolrSpellChecker init: {name=default,field=_text_,classname=solr.DirectSolrSpellChecker,distanceMeasure=internal,accuracy=0.5,maxEdits=2,minPrefix=1,maxInspections=5,minQueryLength=4,maxQueryFrequency=0.01}
2017-06-15 12:51:10.291 INFO  (qtp1205044462-12) [   x:nutch] o.a.s.h.c.QueryElevationComponent Loading QueryElevation from: /home/kyle/dev/solr-6.6.0/server/solr/nutch/conf/elevate.xml
2017-06-15 12:51:10.309 INFO  (qtp1205044462-12) [   x:nutch] o.a.s.h.ReplicationHandler Commits will be reserved for  10000
2017-06-15 12:51:10.351 INFO  (searcherExecutor-7-thread-1-processing-x:nutch) [   x:nutch] o.a.s.c.QuerySenderListener QuerySenderListener sending requests to Searcher@663a2536[nutch] main{ExitableDirectoryReader(UninvertingDirectoryReader())}
2017-06-15 12:51:10.351 INFO  (searcherExecutor-7-thread-1-processing-x:nutch) [   x:nutch] o.a.s.c.QuerySenderListener QuerySenderListener done.
2017-06-15 12:51:10.351 INFO  (searcherExecutor-7-thread-1-processing-x:nutch) [   x:nutch] o.a.s.h.c.SpellCheckComponent Loading spell index for spellchecker: default
2017-06-15 12:51:10.354 INFO  (searcherExecutor-7-thread-1-processing-x:nutch) [   x:nutch] o.a.s.c.SolrCore [nutch] Registered new searcher Searcher@663a2536[nutch] main{ExitableDirectoryReader(UninvertingDirectoryReader())}
2017-06-15 12:51:10.356 INFO  (qtp1205044462-12) [   x:nutch] o.a.s.u.UpdateLog Could not find max version in index or recent updates, using new clock 1570275139629613056
2017-06-15 12:51:10.364 INFO  (qtp1205044462-12) [   x:nutch] o.a.s.s.HttpSolrCall [admin] webapp=null path=/admin/cores params={name=nutch&action=CREATE&instanceDir=nutch&wt=json} status=0 QTime=1689
2017-06-15 12:51:21.049 INFO  (qtp1205044462-17) [   ] o.a.s.s.HttpSolrCall [admin] webapp=null path=/admin/cores params={indexInfo=false&wt=json&_=1497531080817} status=0 QTime=0
2017-06-15 12:51:21.053 INFO  (qtp1205044462-12) [   ] o.a.s.s.HttpSolrCall [admin] webapp=null path=/admin/cores params={wt=json&_=1497531080817} status=0 QTime=2
2017-06-15 12:51:21.063 INFO  (qtp1205044462-20) [   ] o.a.s.s.HttpSolrCall [admin] webapp=null path=/admin/info/system params={wt=json&_=1497531080818} status=0 QTime=12
2017-06-15 12:51:21.261 INFO  (qtp1205044462-18) [   ] o.a.s.s.HttpSolrCall [admin] webapp=null path=/admin/cores params={indexInfo=false&wt=json&_=1497531080817} status=0 QTime=0
2017-06-15 12:51:21.265 INFO  (qtp1205044462-19) [   ] o.a.s.s.HttpSolrCall [admin] webapp=null path=/admin/cores params={wt=json&_=1497531080817} status=0 QTime=1
2017-06-15 12:51:21.274 INFO  (qtp1205044462-13) [   ] o.a.s.s.HttpSolrCall [admin] webapp=null path=/admin/info/system params={wt=json&_=1497531080818} status=0 QTime=7
2017-06-15 13:41:41.782 INFO  (ShutdownMonitor) [   ] o.a.s.c.CoreContainer Shutting down CoreContainer instance=388357135
2017-06-15 13:41:41.785 INFO  (ShutdownMonitor) [   ] o.a.s.m.SolrMetricManager Closing metric reporters for: solr.node
2017-06-15 13:41:41.785 INFO  (ShutdownMonitor) [   ] o.a.s.m.SolrMetricManager Closing metric reporters for: solr.jvm
2017-06-15 13:41:41.785 INFO  (ShutdownMonitor) [   ] o.a.s.m.SolrMetricManager Closing metric reporters for: solr.jetty
2017-06-15 13:41:41.790 INFO  (coreCloseExecutor-12-thread-1) [   x:nutch] o.a.s.c.SolrCore [nutch]  CLOSING SolrCore org.apache.solr.core.SolrCore@1a74d1cb
2017-06-15 13:41:41.808 INFO  (coreCloseExecutor-12-thread-1) [   x:nutch] o.a.s.m.SolrMetricManager Closing metric reporters for: solr.core.nutch
