2017-06-20 15:18:36.203 INFO  (main) [   ] o.e.j.s.Server jetty-9.3.14.v20161028
2017-06-20 15:18:36.633 INFO  (main) [   ] o.a.s.s.SolrDispatchFilter  ___      _       Welcome to Apache Solr™ version 6.6.0
2017-06-20 15:18:36.633 INFO  (main) [   ] o.a.s.s.SolrDispatchFilter / __| ___| |_ _   Starting in standalone mode on port 8983
2017-06-20 15:18:36.633 INFO  (main) [   ] o.a.s.s.SolrDispatchFilter \__ \/ _ \ | '_|  Install dir: /home/kyle/dev/solr-6.6.0
2017-06-20 15:18:36.650 INFO  (main) [   ] o.a.s.s.SolrDispatchFilter |___/\___/_|_|    Start time: 2017-06-20T15:18:36.634Z
2017-06-20 15:18:36.651 INFO  (main) [   ] o.a.s.s.StartupLoggingUtils Property solr.log.muteconsole given. Muting ConsoleAppender named CONSOLE
2017-06-20 15:18:36.664 INFO  (main) [   ] o.a.s.c.SolrResourceLoader Using system property solr.solr.home: /home/kyle/dev/solr-6.6.0/server/solr
2017-06-20 15:18:36.670 INFO  (main) [   ] o.a.s.c.SolrXmlConfig Loading container configuration from /home/kyle/dev/solr-6.6.0/server/solr/solr.xml
2017-06-20 15:18:37.078 INFO  (main) [   ] o.a.s.u.UpdateShardHandler Creating UpdateShardHandler HTTP client with params: socketTimeout=600000&connTimeout=60000&retry=true
2017-06-20 15:18:37.312 INFO  (main) [   ] o.a.s.c.CorePropertiesLocator Found 1 core definitions underneath /home/kyle/dev/solr-6.6.0/server/solr
2017-06-20 15:18:37.314 INFO  (main) [   ] o.a.s.c.CorePropertiesLocator Cores are: [nutch]
2017-06-20 15:18:37.389 INFO  (main) [   ] o.e.j.s.Server Started @1736ms
2017-06-20 15:18:37.413 INFO  (coreLoadExecutor-6-thread-1) [   x:nutch] o.a.s.c.SolrResourceLoader [nutch] Added 51 libs to classloader, from paths: [/home/kyle/dev/solr-6.6.0/contrib/clustering/lib, /home/kyle/dev/solr-6.6.0/contrib/extraction/lib, /home/kyle/dev/solr-6.6.0/contrib/langid/lib, /home/kyle/dev/solr-6.6.0/contrib/velocity/lib, /home/kyle/dev/solr-6.6.0/dist]
2017-06-20 15:18:37.600 INFO  (coreLoadExecutor-6-thread-1) [   x:nutch] o.a.s.c.SolrConfig Using Lucene MatchVersion: 6.6.0
2017-06-20 15:18:37.708 WARN  (coreLoadExecutor-6-thread-1) [   x:nutch] o.a.s.s.ManagedIndexSchemaFactory The schema has been upgraded to managed, but the non-managed schema schema.xml is still loadable.  PLEASE REMOVE THIS FILE.
2017-06-20 15:18:37.797 INFO  (coreLoadExecutor-6-thread-1) [   x:nutch] o.a.s.s.IndexSchema [nutch] Schema name=example-data-driven-schema
2017-06-20 15:18:38.353 INFO  (coreLoadExecutor-6-thread-1) [   x:nutch] o.a.s.s.IndexSchema Loaded schema example-data-driven-schema/1.6 with uniqueid field id
2017-06-20 15:18:38.407 INFO  (coreLoadExecutor-6-thread-1) [   x:nutch] o.a.s.c.CoreContainer Creating SolrCore 'nutch' using configuration from instancedir /home/kyle/dev/solr-6.6.0/server/solr/nutch, trusted=true
2017-06-20 15:18:38.439 INFO  (coreLoadExecutor-6-thread-1) [   x:nutch] o.a.s.c.SolrCore solr.RecoveryStrategy.Builder
2017-06-20 15:18:38.443 INFO  (coreLoadExecutor-6-thread-1) [   x:nutch] o.a.s.c.SolrCore [[nutch] ] Opening new SolrCore at [/home/kyle/dev/solr-6.6.0/server/solr/nutch], dataDir=[/home/kyle/dev/solr-6.6.0/server/solr/nutch/data/]
2017-06-20 15:18:38.479 INFO  (coreLoadExecutor-6-thread-1) [   x:nutch] o.a.s.r.XSLTResponseWriter xsltCacheLifetimeSeconds=5
2017-06-20 15:18:38.762 INFO  (coreLoadExecutor-6-thread-1) [   x:nutch] o.a.s.u.UpdateHandler Using UpdateLog implementation: org.apache.solr.update.UpdateLog
2017-06-20 15:18:38.762 INFO  (coreLoadExecutor-6-thread-1) [   x:nutch] o.a.s.u.UpdateLog Initializing UpdateLog: dataDir= defaultSyncLevel=FLUSH numRecordsToKeep=100 maxNumLogsToKeep=10 numVersionBuckets=65536
2017-06-20 15:18:38.788 INFO  (coreLoadExecutor-6-thread-1) [   x:nutch] o.a.s.u.CommitTracker Hard AutoCommit: if uncommited for 15000ms; 
2017-06-20 15:18:38.788 INFO  (coreLoadExecutor-6-thread-1) [   x:nutch] o.a.s.u.CommitTracker Soft AutoCommit: disabled
2017-06-20 15:18:38.886 INFO  (coreLoadExecutor-6-thread-1) [   x:nutch] o.a.s.s.SolrIndexSearcher Opening [Searcher@57d0b4dd[nutch] main]
2017-06-20 15:18:38.898 INFO  (coreLoadExecutor-6-thread-1) [   x:nutch] o.a.s.r.ManagedResourceStorage File-based storage initialized to use dir: /home/kyle/dev/solr-6.6.0/server/solr/nutch/conf
2017-06-20 15:18:38.914 INFO  (coreLoadExecutor-6-thread-1) [   x:nutch] o.a.s.h.c.SpellCheckComponent Initializing spell checkers
2017-06-20 15:18:38.919 INFO  (coreLoadExecutor-6-thread-1) [   x:nutch] o.a.s.s.DirectSolrSpellChecker init: {name=default,field=_text_,classname=solr.DirectSolrSpellChecker,distanceMeasure=internal,accuracy=0.5,maxEdits=2,minPrefix=1,maxInspections=5,minQueryLength=4,maxQueryFrequency=0.01}
2017-06-20 15:18:38.922 INFO  (coreLoadExecutor-6-thread-1) [   x:nutch] o.a.s.h.c.QueryElevationComponent Loading QueryElevation from: /home/kyle/dev/solr-6.6.0/server/solr/nutch/conf/elevate.xml
2017-06-20 15:18:38.936 INFO  (coreLoadExecutor-6-thread-1) [   x:nutch] o.a.s.h.ReplicationHandler Commits will be reserved for  10000
2017-06-20 15:18:38.974 INFO  (searcherExecutor-7-thread-1-processing-x:nutch) [   x:nutch] o.a.s.c.QuerySenderListener QuerySenderListener sending requests to Searcher@57d0b4dd[nutch] main{ExitableDirectoryReader(UninvertingDirectoryReader(Uninverting(_i(6.6.0):C82/1:delGen=1)))}
2017-06-20 15:18:38.975 INFO  (searcherExecutor-7-thread-1-processing-x:nutch) [   x:nutch] o.a.s.c.QuerySenderListener QuerySenderListener done.
2017-06-20 15:18:38.975 INFO  (searcherExecutor-7-thread-1-processing-x:nutch) [   x:nutch] o.a.s.h.c.SpellCheckComponent Loading spell index for spellchecker: default
2017-06-20 15:18:38.976 INFO  (searcherExecutor-7-thread-1-processing-x:nutch) [   x:nutch] o.a.s.c.SolrCore [nutch] Registered new searcher Searcher@57d0b4dd[nutch] main{ExitableDirectoryReader(UninvertingDirectoryReader(Uninverting(_i(6.6.0):C82/1:delGen=1)))}
2017-06-20 15:19:15.145 INFO  (qtp1205044462-18) [   x:nutch] o.a.s.u.DirectUpdateHandler2 start commit{,optimize=false,openSearcher=true,waitSearcher=true,expungeDeletes=false,softCommit=false,prepareCommit=false}
2017-06-20 15:19:15.145 INFO  (qtp1205044462-18) [   x:nutch] o.a.s.u.DirectUpdateHandler2 No uncommitted changes. Skipping IW.commit.
2017-06-20 15:19:15.145 INFO  (qtp1205044462-18) [   x:nutch] o.a.s.u.DirectUpdateHandler2 end_commit_flush
2017-06-20 15:19:15.145 INFO  (qtp1205044462-18) [   x:nutch] o.a.s.u.p.LogUpdateProcessorFactory [nutch]  webapp=/solr path=/update params={waitSearcher=true&commit=true&softCommit=false&wt=javabin&version=2}{commit=} 0 18
2017-06-20 15:19:15.943 INFO  (qtp1205044462-13) [   x:nutch] o.a.s.u.DirectUpdateHandler2 start commit{,optimize=false,openSearcher=true,waitSearcher=true,expungeDeletes=false,softCommit=false,prepareCommit=false}
2017-06-20 15:19:15.943 INFO  (qtp1205044462-13) [   x:nutch] o.a.s.u.DirectUpdateHandler2 No uncommitted changes. Skipping IW.commit.
2017-06-20 15:19:15.944 INFO  (qtp1205044462-13) [   x:nutch] o.a.s.u.DirectUpdateHandler2 end_commit_flush
2017-06-20 15:19:15.944 INFO  (qtp1205044462-13) [   x:nutch] o.a.s.u.p.LogUpdateProcessorFactory [nutch]  webapp=/solr path=/update params={waitSearcher=true&commit=true&softCommit=false&wt=javabin&version=2}{commit=} 0 1
2017-06-20 15:19:18.767 INFO  (qtp1205044462-18) [   x:nutch] o.a.s.u.DirectUpdateHandler2 start commit{,optimize=false,openSearcher=true,waitSearcher=true,expungeDeletes=false,softCommit=false,prepareCommit=false}
2017-06-20 15:19:18.767 INFO  (qtp1205044462-18) [   x:nutch] o.a.s.u.DirectUpdateHandler2 No uncommitted changes. Skipping IW.commit.
2017-06-20 15:19:18.768 INFO  (qtp1205044462-18) [   x:nutch] o.a.s.u.DirectUpdateHandler2 end_commit_flush
2017-06-20 15:19:18.768 INFO  (qtp1205044462-18) [   x:nutch] o.a.s.u.p.LogUpdateProcessorFactory [nutch]  webapp=/solr path=/update params={waitSearcher=true&commit=true&softCommit=false&wt=javabin&version=2}{commit=} 0 1
2017-06-20 15:19:46.644 INFO  (qtp1205044462-19) [   x:nutch] o.a.s.u.p.LogUpdateProcessorFactory [nutch]  webapp=/solr path=/update params={wt=javabin&version=2}{add=[https://barnet.gov.uk/citizen-home (1570737473782284288)]} 0 119
2017-06-20 15:19:46.658 INFO  (qtp1205044462-18) [   x:nutch] o.a.s.u.DirectUpdateHandler2 start commit{,optimize=false,openSearcher=true,waitSearcher=true,expungeDeletes=false,softCommit=false,prepareCommit=false}
2017-06-20 15:19:46.659 INFO  (qtp1205044462-18) [   x:nutch] o.a.s.u.SolrIndexWriter Calling setCommitData with IW:org.apache.solr.update.SolrIndexWriter@444ee1cc
2017-06-20 15:19:46.751 INFO  (qtp1205044462-18) [   x:nutch] o.a.s.s.SolrIndexSearcher Opening [Searcher@5bd9dec6[nutch] main]
2017-06-20 15:19:46.756 INFO  (searcherExecutor-7-thread-1-processing-x:nutch) [   x:nutch] o.a.s.c.QuerySenderListener QuerySenderListener sending requests to Searcher@5bd9dec6[nutch] main{ExitableDirectoryReader(UninvertingDirectoryReader(Uninverting(_i(6.6.0):C82/1:delGen=1) Uninverting(_j(6.6.0):C1)))}
2017-06-20 15:19:46.756 INFO  (searcherExecutor-7-thread-1-processing-x:nutch) [   x:nutch] o.a.s.c.QuerySenderListener QuerySenderListener done.
2017-06-20 15:19:46.756 INFO  (searcherExecutor-7-thread-1-processing-x:nutch) [   x:nutch] o.a.s.c.SolrCore [nutch] Registered new searcher Searcher@5bd9dec6[nutch] main{ExitableDirectoryReader(UninvertingDirectoryReader(Uninverting(_i(6.6.0):C82/1:delGen=1) Uninverting(_j(6.6.0):C1)))}
2017-06-20 15:19:46.758 INFO  (qtp1205044462-18) [   x:nutch] o.a.s.u.DirectUpdateHandler2 end_commit_flush
2017-06-20 15:19:46.758 INFO  (qtp1205044462-18) [   x:nutch] o.a.s.u.p.LogUpdateProcessorFactory [nutch]  webapp=/solr path=/update params={waitSearcher=true&commit=true&softCommit=false&wt=javabin&version=2}{commit=} 0 99
2017-06-20 15:19:46.831 INFO  (qtp1205044462-13) [   x:nutch] o.a.s.u.DirectUpdateHandler2 start commit{,optimize=false,openSearcher=true,waitSearcher=true,expungeDeletes=false,softCommit=false,prepareCommit=false}
2017-06-20 15:19:46.831 INFO  (qtp1205044462-13) [   x:nutch] o.a.s.u.DirectUpdateHandler2 No uncommitted changes. Skipping IW.commit.
2017-06-20 15:19:46.831 INFO  (qtp1205044462-13) [   x:nutch] o.a.s.u.DirectUpdateHandler2 end_commit_flush
2017-06-20 15:19:46.832 INFO  (qtp1205044462-13) [   x:nutch] o.a.s.u.p.LogUpdateProcessorFactory [nutch]  webapp=/solr path=/update params={waitSearcher=true&commit=true&softCommit=false&wt=javabin&version=2}{commit=} 0 0
2017-06-20 15:19:48.890 INFO  (qtp1205044462-18) [   x:nutch] o.a.s.u.DirectUpdateHandler2 start commit{,optimize=false,openSearcher=true,waitSearcher=true,expungeDeletes=false,softCommit=false,prepareCommit=false}
2017-06-20 15:19:48.891 INFO  (qtp1205044462-18) [   x:nutch] o.a.s.u.DirectUpdateHandler2 No uncommitted changes. Skipping IW.commit.
2017-06-20 15:19:48.891 INFO  (qtp1205044462-18) [   x:nutch] o.a.s.u.DirectUpdateHandler2 end_commit_flush
2017-06-20 15:19:48.891 INFO  (qtp1205044462-18) [   x:nutch] o.a.s.u.p.LogUpdateProcessorFactory [nutch]  webapp=/solr path=/update params={waitSearcher=true&commit=true&softCommit=false&wt=javabin&version=2}{commit=} 0 0
2017-06-20 15:21:52.954 INFO  (qtp1205044462-14) [   ] o.a.s.c.TransientSolrCoreCacheDefault Allocating transient cache for 2147483647 transient cores
2017-06-20 15:21:53.661 INFO  (qtp1205044462-12) [   ] o.a.s.s.HttpSolrCall [admin] webapp=null path=/admin/cores params={indexInfo=false&wt=json&_=1497972113370} status=0 QTime=1
2017-06-20 15:21:53.684 INFO  (qtp1205044462-17) [   x:nutch] o.a.s.c.S.Request [nutch]  webapp=/solr path=/admin/luke params={show=schema&wt=json&_=1497972113620} status=0 QTime=7
2017-06-20 15:21:53.685 INFO  (qtp1205044462-15) [   x:nutch] o.a.s.c.S.Request [nutch]  webapp=/solr path=/config params={wt=json&_=1497972113621} status=0 QTime=6
2017-06-20 15:21:53.701 INFO  (qtp1205044462-19) [   ] o.a.s.s.HttpSolrCall [admin] webapp=null path=/admin/info/system params={wt=json&_=1497972113373} status=0 QTime=35
2017-06-20 15:21:53.854 INFO  (qtp1205044462-20) [   x:nutch] o.a.s.c.S.Request [nutch]  webapp=/solr path=/admin/luke params={numTerms=0&wt=json&_=1497972113620} status=0 QTime=19
2017-06-20 15:22:27.886 INFO  (qtp1205044462-13) [   ] o.a.s.s.HttpSolrCall [admin] webapp=null path=/admin/cores params={indexInfo=false&wt=json&_=1497972113370} status=0 QTime=0
2017-06-20 15:22:27.912 INFO  (qtp1205044462-18) [   x:nutch] o.a.s.c.S.Request [nutch]  webapp=/solr path=/admin/luke params={show=schema&wt=json&_=1497972113620} status=0 QTime=3
2017-06-20 15:22:27.913 INFO  (qtp1205044462-21) [   x:nutch] o.a.s.c.S.Request [nutch]  webapp=/solr path=/config params={wt=json&_=1497972113621} status=0 QTime=8
2017-06-20 15:22:27.972 INFO  (qtp1205044462-13) [   ] o.a.s.s.HttpSolrCall [admin] webapp=null path=/admin/info/system params={wt=json&_=1497972113373} status=0 QTime=81
2017-06-20 15:22:28.000 INFO  (qtp1205044462-19) [   x:nutch] o.a.s.c.S.Request [nutch]  webapp=/solr path=/admin/luke params={numTerms=0&wt=json&_=1497972113620} status=0 QTime=2
2017-06-20 15:22:29.530 INFO  (qtp1205044462-12) [   x:nutch] o.a.s.c.S.Request [nutch]  webapp=/solr path=/admin/luke params={fl=id&wt=json&_=1497972113620} status=0 QTime=13
2017-06-20 15:22:35.356 INFO  (qtp1205044462-15) [   ] o.a.s.s.HttpSolrCall [admin] webapp=null path=/admin/cores params={indexInfo=false&wt=json&_=1497972113370} status=0 QTime=0
2017-06-20 15:22:35.363 INFO  (qtp1205044462-14) [   ] o.a.s.s.HttpSolrCall [admin] webapp=null path=/admin/info/system params={wt=json&_=1497972113373} status=0 QTime=6
2017-06-20 15:22:35.388 INFO  (qtp1205044462-15) [   x:nutch] o.a.s.c.S.Request [nutch]  webapp=/solr path=/select params={q={!term+f%3Did}https://barnet.gov.uk/citizen-home/business.html&indent=on&wt=json&_=1497972155321} hits=1 status=0 QTime=25
2017-06-20 15:23:55.019 INFO  (qtp1205044462-21) [   ] o.a.s.s.HttpSolrCall [admin] webapp=null path=/admin/cores params={indexInfo=false&wt=json&_=1497972113370} status=0 QTime=0
2017-06-20 15:23:55.039 INFO  (qtp1205044462-19) [   ] o.a.s.s.HttpSolrCall [admin] webapp=null path=/admin/info/system params={wt=json&_=1497972113373} status=0 QTime=14
2017-06-20 15:23:55.058 INFO  (qtp1205044462-17) [   ] o.a.s.s.HttpSolrCall [admin] webapp=null path=/admin/info/system params={wt=json&_=1497972113373} status=0 QTime=15
2017-06-20 15:23:55.779 INFO  (qtp1205044462-18) [   ] o.a.s.s.HttpSolrCall [admin] webapp=null path=/admin/cores params={indexInfo=false&wt=json&_=1497972113370} status=0 QTime=0
2017-06-20 15:23:55.782 INFO  (qtp1205044462-12) [   ] o.a.s.s.HttpSolrCall [admin] webapp=null path=/admin/info/logging params={wt=json&_=1497972235740&since=0} status=0 QTime=3
2017-06-20 15:23:55.796 INFO  (qtp1205044462-14) [   ] o.a.s.s.HttpSolrCall [admin] webapp=null path=/admin/info/system params={wt=json&_=1497972113373} status=0 QTime=23
2017-06-20 15:23:56.208 INFO  (qtp1205044462-21) [   ] o.a.s.s.HttpSolrCall [admin] webapp=null path=/admin/cores params={indexInfo=false&wt=json&_=1497972113370} status=0 QTime=0
2017-06-20 15:23:56.223 INFO  (qtp1205044462-21) [   ] o.a.s.s.HttpSolrCall [admin] webapp=null path=/admin/info/logging params={wt=json&_=1497972235740} status=0 QTime=4
2017-06-20 15:23:56.230 INFO  (qtp1205044462-13) [   ] o.a.s.s.HttpSolrCall [admin] webapp=null path=/admin/info/system params={wt=json&_=1497972113373} status=0 QTime=11
2017-06-20 15:23:58.160 INFO  (qtp1205044462-18) [   ] o.a.s.s.HttpSolrCall [admin] webapp=null path=/admin/cores params={indexInfo=false&wt=json&_=1497972113370} status=0 QTime=0
2017-06-20 15:23:58.176 INFO  (qtp1205044462-15) [   ] o.a.s.s.HttpSolrCall [admin] webapp=null path=/admin/info/system params={wt=json&_=1497972113373} status=0 QTime=17
2017-06-20 15:23:58.195 INFO  (qtp1205044462-14) [   ] o.a.s.s.HttpSolrCall [admin] webapp=null path=/admin/info/system params={wt=json&_=1497972113373} status=0 QTime=6
2017-06-20 15:24:00.320 INFO  (qtp1205044462-20) [   ] o.a.s.s.HttpSolrCall [admin] webapp=null path=/admin/cores params={indexInfo=false&wt=json&_=1497972113370} status=0 QTime=0
2017-06-20 15:24:00.328 INFO  (qtp1205044462-20) [   x:nutch] o.a.s.c.S.Request [nutch]  webapp=/solr path=/admin/luke params={numTerms=0&show=index&wt=json&_=1497972113620} status=0 QTime=0
2017-06-20 15:24:00.334 INFO  (qtp1205044462-21) [   x:nutch] o.a.s.c.S.Request [nutch]  webapp=/solr path=/replication params={wt=json&command=details&_=1497972240306} status=0 QTime=3
2017-06-20 15:24:00.338 INFO  (qtp1205044462-12) [   ] o.a.s.s.HttpSolrCall [admin] webapp=null path=/admin/info/system params={wt=json&_=1497972113373} status=0 QTime=8
2017-06-20 15:24:00.347 INFO  (qtp1205044462-13) [   x:nutch] o.a.s.c.S.Request [nutch]  webapp=/solr path=/admin/ping params={action=status&wt=json&_=1497972113373&ts=1497972113373} status=503 QTime=1
2017-06-20 15:24:00.360 INFO  (qtp1205044462-17) [   x:nutch] o.a.s.c.S.Request [nutch]  webapp=/solr path=/admin/system params={wt=json&_=1497972240305} status=0 QTime=18
2017-06-20 15:27:04.232 INFO  (qtp1205044462-12) [   x:nutch] o.a.s.u.p.LogUpdateProcessorFactory [nutch]  webapp=/solr path=/update params={wt=javabin&version=2}{add=[https://barnet.gov.uk/citizen-home/Downloads/Annual-accounts.html (1570737932522749952), https://barnet.gov.uk/citizen-home/Downloads/application-to-reregister-a-childs-birth.html (1570737932527992832), https://barnet.gov.uk/citizen-home/adult-social-care.html (1570737932530089984), https://barnet.gov.uk/citizen-home/adult-social-care/About-adult-social-care.html (1570737932533235712), https://barnet.gov.uk/citizen-home/adult-social-care/advice-and-support.html (1570737932536381440), https://barnet.gov.uk/citizen-home/adult-social-care/advice-and-support/transport-options/blue-badge-parking-permits.html (1570737932538478592), https://barnet.gov.uk/citizen-home/births-deaths-marriages-and-nationality.html (1570737932547915776), https://barnet.gov.uk/citizen-home/business.html (1570737932551061504), https://barnet.gov.uk/citizen-home/children-young-people-and-families.html (1570737932554207232), https://barnet.gov.uk/citizen-home/council-and-democracy.html (1570737932556304384), ... (82 adds)]} 0 180
2017-06-20 15:27:04.249 INFO  (qtp1205044462-18) [   x:nutch] o.a.s.u.DirectUpdateHandler2 start commit{,optimize=false,openSearcher=true,waitSearcher=true,expungeDeletes=false,softCommit=false,prepareCommit=false}
2017-06-20 15:27:04.249 INFO  (qtp1205044462-18) [   x:nutch] o.a.s.u.SolrIndexWriter Calling setCommitData with IW:org.apache.solr.update.SolrIndexWriter@444ee1cc
2017-06-20 15:27:04.395 INFO  (qtp1205044462-18) [   x:nutch] o.a.s.s.SolrIndexSearcher Opening [Searcher@73bccaed[nutch] main]
2017-06-20 15:27:04.396 INFO  (searcherExecutor-7-thread-1-processing-x:nutch) [   x:nutch] o.a.s.c.QuerySenderListener QuerySenderListener sending requests to Searcher@73bccaed[nutch] main{ExitableDirectoryReader(UninvertingDirectoryReader(Uninverting(_j(6.6.0):C1) Uninverting(_k(6.6.0):C82)))}
2017-06-20 15:27:04.400 INFO  (searcherExecutor-7-thread-1-processing-x:nutch) [   x:nutch] o.a.s.c.QuerySenderListener QuerySenderListener done.
2017-06-20 15:27:04.400 INFO  (searcherExecutor-7-thread-1-processing-x:nutch) [   x:nutch] o.a.s.c.SolrCore [nutch] Registered new searcher Searcher@73bccaed[nutch] main{ExitableDirectoryReader(UninvertingDirectoryReader(Uninverting(_j(6.6.0):C1) Uninverting(_k(6.6.0):C82)))}
2017-06-20 15:27:04.400 INFO  (qtp1205044462-18) [   x:nutch] o.a.s.u.DirectUpdateHandler2 end_commit_flush
2017-06-20 15:27:04.402 INFO  (qtp1205044462-18) [   x:nutch] o.a.s.u.p.LogUpdateProcessorFactory [nutch]  webapp=/solr path=/update params={waitSearcher=true&commit=true&softCommit=false&wt=javabin&version=2}{commit=} 0 153
2017-06-20 15:27:04.564 INFO  (qtp1205044462-14) [   x:nutch] o.a.s.u.DirectUpdateHandler2 start commit{,optimize=false,openSearcher=true,waitSearcher=true,expungeDeletes=false,softCommit=false,prepareCommit=false}
2017-06-20 15:27:04.565 INFO  (qtp1205044462-14) [   x:nutch] o.a.s.u.DirectUpdateHandler2 No uncommitted changes. Skipping IW.commit.
2017-06-20 15:27:04.565 INFO  (qtp1205044462-14) [   x:nutch] o.a.s.u.DirectUpdateHandler2 end_commit_flush
2017-06-20 15:27:04.565 INFO  (qtp1205044462-14) [   x:nutch] o.a.s.u.p.LogUpdateProcessorFactory [nutch]  webapp=/solr path=/update params={waitSearcher=true&commit=true&softCommit=false&wt=javabin&version=2}{commit=} 0 1
2017-06-20 15:27:07.839 INFO  (qtp1205044462-17) [   x:nutch] o.a.s.u.p.LogUpdateProcessorFactory [nutch]  webapp=/solr path=/update params={wt=javabin&version=2}{delete=[https://www.barnet.gov.uk/citizen-home/parking-roads-and-pavements/Parking/parking-permits.html (-1570737936492658688), https://barnet.gov.uk/citizen-home (-1570737936493707264)]} 0 1
2017-06-20 15:27:07.854 INFO  (qtp1205044462-21) [   x:nutch] o.a.s.u.DirectUpdateHandler2 start commit{,optimize=false,openSearcher=true,waitSearcher=true,expungeDeletes=false,softCommit=false,prepareCommit=false}
2017-06-20 15:27:07.854 INFO  (qtp1205044462-21) [   x:nutch] o.a.s.u.SolrIndexWriter Calling setCommitData with IW:org.apache.solr.update.SolrIndexWriter@444ee1cc
2017-06-20 15:27:07.866 INFO  (qtp1205044462-21) [   x:nutch] o.a.s.s.SolrIndexSearcher Opening [Searcher@31eb8925[nutch] main]
2017-06-20 15:27:07.866 INFO  (searcherExecutor-7-thread-1-processing-x:nutch) [   x:nutch] o.a.s.c.QuerySenderListener QuerySenderListener sending requests to Searcher@31eb8925[nutch] main{ExitableDirectoryReader(UninvertingDirectoryReader(Uninverting(_k(6.6.0):C82/1:delGen=1)))}
2017-06-20 15:27:07.867 INFO  (searcherExecutor-7-thread-1-processing-x:nutch) [   x:nutch] o.a.s.c.QuerySenderListener QuerySenderListener done.
2017-06-20 15:27:07.867 INFO  (searcherExecutor-7-thread-1-processing-x:nutch) [   x:nutch] o.a.s.c.SolrCore [nutch] Registered new searcher Searcher@31eb8925[nutch] main{ExitableDirectoryReader(UninvertingDirectoryReader(Uninverting(_k(6.6.0):C82/1:delGen=1)))}
2017-06-20 15:27:07.868 INFO  (qtp1205044462-21) [   x:nutch] o.a.s.u.DirectUpdateHandler2 end_commit_flush
2017-06-20 15:27:07.868 INFO  (qtp1205044462-21) [   x:nutch] o.a.s.u.p.LogUpdateProcessorFactory [nutch]  webapp=/solr path=/update params={waitSearcher=true&commit=true&softCommit=false&wt=javabin&version=2}{commit=} 0 14
2017-06-20 15:35:18.588 INFO  (qtp1205044462-13) [   ] o.a.s.s.HttpSolrCall [admin] webapp=null path=/admin/cores params={indexInfo=false&wt=json&_=1497972918317} status=0 QTime=0
2017-06-20 15:35:18.604 INFO  (qtp1205044462-14) [   ] o.a.s.s.HttpSolrCall [admin] webapp=null path=/admin/info/system params={wt=json&_=1497972918319} status=0 QTime=9
2017-06-20 15:35:18.616 INFO  (qtp1205044462-12) [   x:nutch] o.a.s.c.S.Request [nutch]  webapp=/solr path=/admin/luke params={numTerms=0&show=index&wt=json&_=1497972918571} status=0 QTime=0
2017-06-20 15:35:18.626 INFO  (qtp1205044462-19) [   x:nutch] o.a.s.c.S.Request [nutch]  webapp=/solr path=/replication params={wt=json&command=details&_=1497972918573} status=0 QTime=1
2017-06-20 15:35:18.635 INFO  (qtp1205044462-18) [   x:nutch] o.a.s.c.S.Request [nutch]  webapp=/solr path=/admin/ping params={action=status&wt=json&_=1497972918320&ts=1497972918320} status=503 QTime=0
2017-06-20 15:35:18.643 INFO  (qtp1205044462-12) [   x:nutch] o.a.s.c.S.Request [nutch]  webapp=/solr path=/admin/system params={wt=json&_=1497972918572} status=0 QTime=10
2017-06-20 15:35:22.216 INFO  (qtp1205044462-20) [   ] o.a.s.s.HttpSolrCall [admin] webapp=null path=/admin/cores params={indexInfo=false&wt=json&_=1497972918317} status=0 QTime=0
2017-06-20 15:35:22.223 INFO  (qtp1205044462-18) [   ] o.a.s.s.HttpSolrCall [admin] webapp=null path=/admin/info/system params={wt=json&_=1497972918319} status=0 QTime=6
2017-06-20 15:35:22.225 INFO  (qtp1205044462-13) [   x:nutch] o.a.s.c.S.Request [nutch]  webapp=/solr path=/admin/luke params={show=schema&wt=json&_=1497972918571} status=0 QTime=2
2017-06-20 15:35:22.250 INFO  (qtp1205044462-15) [   x:nutch] o.a.s.c.S.Request [nutch]  webapp=/solr path=/config params={wt=json&_=1497972922186} status=0 QTime=0
2017-06-20 15:35:22.287 INFO  (qtp1205044462-15) [   x:nutch] o.a.s.c.S.Request [nutch]  webapp=/solr path=/admin/luke params={numTerms=0&wt=json&_=1497972918571} status=0 QTime=1
2017-06-20 15:35:26.957 INFO  (qtp1205044462-21) [   ] o.a.s.s.HttpSolrCall [admin] webapp=null path=/admin/cores params={indexInfo=false&wt=json&_=1497972918317} status=0 QTime=0
2017-06-20 15:35:26.963 INFO  (qtp1205044462-14) [   x:nutch] o.a.s.c.S.Request [nutch]  webapp=/solr path=/admin/luke params={show=schema&wt=json&_=1497972918571} status=0 QTime=1
2017-06-20 15:35:26.969 INFO  (qtp1205044462-20) [   ] o.a.s.s.HttpSolrCall [admin] webapp=null path=/admin/info/system params={wt=json&_=1497972918319} status=0 QTime=9
2017-06-20 15:35:26.971 INFO  (qtp1205044462-18) [   x:nutch] o.a.s.c.S.Request [nutch]  webapp=/solr path=/config params={wt=json&_=1497972922186} status=0 QTime=1
2017-06-20 15:35:27.004 INFO  (qtp1205044462-19) [   x:nutch] o.a.s.c.S.Request [nutch]  webapp=/solr path=/admin/luke params={numTerms=0&wt=json&_=1497972918571} status=0 QTime=0
2017-06-20 15:35:28.168 INFO  (qtp1205044462-15) [   x:nutch] o.a.s.c.S.Request [nutch]  webapp=/solr path=/admin/luke params={fl=headings&wt=json&_=1497972918571} status=0 QTime=1
2017-06-20 15:35:31.201 INFO  (qtp1205044462-12) [   x:nutch] o.a.s.c.S.Request [nutch]  webapp=/solr path=/admin/luke params={fl=headings&wt=json&_=1497972918571} status=0 QTime=2
2017-06-20 15:35:32.889 INFO  (qtp1205044462-21) [   ] o.a.s.s.HttpSolrCall [admin] webapp=null path=/admin/cores params={indexInfo=false&wt=json&_=1497972918317} status=0 QTime=0
2017-06-20 15:35:32.897 INFO  (qtp1205044462-13) [   x:nutch] o.a.s.c.S.Request [nutch]  webapp=/solr path=/replication params={wt=json&command=details&_=1497972918573} status=0 QTime=0
2017-06-20 15:35:32.901 INFO  (qtp1205044462-13) [   x:nutch] o.a.s.c.S.Request [nutch]  webapp=/solr path=/admin/ping params={action=status&wt=json&_=1497972918320&ts=1497972918320} status=503 QTime=0
2017-06-20 15:35:32.903 INFO  (qtp1205044462-12) [   x:nutch] o.a.s.c.S.Request [nutch]  webapp=/solr path=/admin/luke params={numTerms=0&show=index&wt=json&_=1497972918571} status=0 QTime=2
2017-06-20 15:35:32.911 INFO  (qtp1205044462-17) [   x:nutch] o.a.s.c.S.Request [nutch]  webapp=/solr path=/admin/system params={wt=json&_=1497972918572} status=0 QTime=13
2017-06-20 15:35:32.918 INFO  (qtp1205044462-15) [   ] o.a.s.s.HttpSolrCall [admin] webapp=null path=/admin/info/system params={wt=json&_=1497972918319} status=0 QTime=24
2017-06-20 15:38:34.954 INFO  (qtp1205044462-18) [   x:nutch] o.a.s.s.SolrIndexSearcher Opening [Searcher@28216601[nutch] realtime]
2017-06-20 15:38:34.956 INFO  (qtp1205044462-18) [   x:nutch] o.a.s.u.DirectUpdateHandler2 start commit{,optimize=false,openSearcher=true,waitSearcher=true,expungeDeletes=false,softCommit=false,prepareCommit=false}
2017-06-20 15:38:34.956 INFO  (qtp1205044462-18) [   x:nutch] o.a.s.u.SolrIndexWriter Calling setCommitData with IW:org.apache.solr.update.SolrIndexWriter@444ee1cc
2017-06-20 15:38:34.967 INFO  (qtp1205044462-18) [   x:nutch] o.a.s.s.SolrIndexSearcher Opening [Searcher@ea9a2e1[nutch] main]
2017-06-20 15:38:34.967 INFO  (searcherExecutor-7-thread-1-processing-x:nutch) [   x:nutch] o.a.s.c.QuerySenderListener QuerySenderListener sending requests to Searcher@ea9a2e1[nutch] main{ExitableDirectoryReader(UninvertingDirectoryReader())}
2017-06-20 15:38:34.967 INFO  (searcherExecutor-7-thread-1-processing-x:nutch) [   x:nutch] o.a.s.c.QuerySenderListener QuerySenderListener done.
2017-06-20 15:38:34.968 INFO  (qtp1205044462-18) [   x:nutch] o.a.s.u.DirectUpdateHandler2 end_commit_flush
2017-06-20 15:38:34.968 INFO  (searcherExecutor-7-thread-1-processing-x:nutch) [   x:nutch] o.a.s.c.SolrCore [nutch] Registered new searcher Searcher@ea9a2e1[nutch] main{ExitableDirectoryReader(UninvertingDirectoryReader())}
2017-06-20 15:38:34.969 INFO  (qtp1205044462-18) [   x:nutch] o.a.s.u.p.LogUpdateProcessorFactory [nutch]  webapp=/solr path=/update params={stream.body=<delete><query>*:*</query></delete>&commit=true}{deleteByQuery=*:* (-1570738656927285248),commit=} 0 165
2017-06-20 15:38:37.930 INFO  (qtp1205044462-17) [   ] o.a.s.s.HttpSolrCall [admin] webapp=null path=/admin/cores params={indexInfo=false&wt=json&_=1497973117770} status=0 QTime=0
2017-06-20 15:38:37.938 INFO  (qtp1205044462-13) [   ] o.a.s.s.HttpSolrCall [admin] webapp=null path=/admin/info/system params={wt=json&_=1497973117770} status=0 QTime=7
2017-06-20 15:38:37.941 INFO  (qtp1205044462-14) [   x:nutch] o.a.s.c.S.Request [nutch]  webapp=/solr path=/admin/luke params={numTerms=0&show=index&wt=json&_=1497973117920} status=0 QTime=0
2017-06-20 15:38:37.943 INFO  (qtp1205044462-21) [   x:nutch] o.a.s.c.S.Request [nutch]  webapp=/solr path=/replication params={wt=json&command=details&_=1497973117920} status=0 QTime=0
2017-06-20 15:38:37.950 INFO  (qtp1205044462-19) [   x:nutch] o.a.s.c.S.Request [nutch]  webapp=/solr path=/admin/system params={wt=json&_=1497973117920} status=0 QTime=7
2017-06-20 15:38:37.963 INFO  (qtp1205044462-18) [   x:nutch] o.a.s.c.S.Request [nutch]  webapp=/solr path=/admin/ping params={action=status&wt=json&_=1497973117771&ts=1497973117771} status=503 QTime=0
2017-06-20 15:38:43.418 INFO  (ShutdownMonitor) [   ] o.a.s.c.CoreContainer Shutting down CoreContainer instance=388357135
2017-06-20 15:38:43.418 INFO  (ShutdownMonitor) [   ] o.a.s.m.SolrMetricManager Closing metric reporters for: solr.node
2017-06-20 15:38:43.418 INFO  (ShutdownMonitor) [   ] o.a.s.m.SolrMetricManager Closing metric reporters for: solr.jvm
2017-06-20 15:38:43.418 INFO  (ShutdownMonitor) [   ] o.a.s.m.SolrMetricManager Closing metric reporters for: solr.jetty
2017-06-20 15:38:43.420 INFO  (coreCloseExecutor-12-thread-1) [   x:nutch] o.a.s.c.SolrCore [nutch]  CLOSING SolrCore org.apache.solr.core.SolrCore@3ba3c4f
2017-06-20 15:38:43.424 INFO  (coreCloseExecutor-12-thread-1) [   x:nutch] o.a.s.m.SolrMetricManager Closing metric reporters for: solr.core.nutch
