2017-06-20 15:04:08.894 INFO  (main) [   ] o.e.j.s.Server jetty-9.3.14.v20161028
2017-06-20 15:04:09.513 INFO  (main) [   ] o.a.s.s.SolrDispatchFilter  ___      _       Welcome to Apache Solr™ version 6.6.0
2017-06-20 15:04:09.513 INFO  (main) [   ] o.a.s.s.SolrDispatchFilter / __| ___| |_ _   Starting in standalone mode on port 8983
2017-06-20 15:04:09.513 INFO  (main) [   ] o.a.s.s.SolrDispatchFilter \__ \/ _ \ | '_|  Install dir: /home/kyle/dev/solr-6.6.0
2017-06-20 15:04:09.536 INFO  (main) [   ] o.a.s.s.SolrDispatchFilter |___/\___/_|_|    Start time: 2017-06-20T15:04:09.515Z
2017-06-20 15:04:09.537 INFO  (main) [   ] o.a.s.s.StartupLoggingUtils Property solr.log.muteconsole given. Muting ConsoleAppender named CONSOLE
2017-06-20 15:04:09.558 INFO  (main) [   ] o.a.s.c.SolrResourceLoader Using system property solr.solr.home: /home/kyle/dev/solr-6.6.0/server/solr
2017-06-20 15:04:09.566 INFO  (main) [   ] o.a.s.c.SolrXmlConfig Loading container configuration from /home/kyle/dev/solr-6.6.0/server/solr/solr.xml
2017-06-20 15:04:09.938 INFO  (main) [   ] o.a.s.u.UpdateShardHandler Creating UpdateShardHandler HTTP client with params: socketTimeout=600000&connTimeout=60000&retry=true
2017-06-20 15:04:10.178 INFO  (main) [   ] o.a.s.c.CorePropertiesLocator Found 1 core definitions underneath /home/kyle/dev/solr-6.6.0/server/solr
2017-06-20 15:04:10.181 INFO  (main) [   ] o.a.s.c.CorePropertiesLocator Cores are: [nutch]
2017-06-20 15:04:10.273 INFO  (main) [   ] o.e.j.s.Server Started @2133ms
2017-06-20 15:04:10.352 INFO  (coreLoadExecutor-6-thread-1) [   x:nutch] o.a.s.c.SolrResourceLoader [nutch] Added 51 libs to classloader, from paths: [/home/kyle/dev/solr-6.6.0/contrib/clustering/lib, /home/kyle/dev/solr-6.6.0/contrib/extraction/lib, /home/kyle/dev/solr-6.6.0/contrib/langid/lib, /home/kyle/dev/solr-6.6.0/contrib/velocity/lib, /home/kyle/dev/solr-6.6.0/dist]
2017-06-20 15:04:10.659 INFO  (coreLoadExecutor-6-thread-1) [   x:nutch] o.a.s.c.SolrConfig Using Lucene MatchVersion: 6.6.0
2017-06-20 15:04:10.795 WARN  (coreLoadExecutor-6-thread-1) [   x:nutch] o.a.s.s.ManagedIndexSchemaFactory The schema has been upgraded to managed, but the non-managed schema schema.xml is still loadable.  PLEASE REMOVE THIS FILE.
2017-06-20 15:04:10.873 INFO  (coreLoadExecutor-6-thread-1) [   x:nutch] o.a.s.s.IndexSchema [nutch] Schema name=example-data-driven-schema
2017-06-20 15:04:11.453 INFO  (coreLoadExecutor-6-thread-1) [   x:nutch] o.a.s.s.IndexSchema Loaded schema example-data-driven-schema/1.6 with uniqueid field id
2017-06-20 15:04:11.498 INFO  (coreLoadExecutor-6-thread-1) [   x:nutch] o.a.s.c.CoreContainer Creating SolrCore 'nutch' using configuration from instancedir /home/kyle/dev/solr-6.6.0/server/solr/nutch, trusted=true
2017-06-20 15:04:11.529 INFO  (coreLoadExecutor-6-thread-1) [   x:nutch] o.a.s.c.SolrCore solr.RecoveryStrategy.Builder
2017-06-20 15:04:11.534 INFO  (coreLoadExecutor-6-thread-1) [   x:nutch] o.a.s.c.SolrCore [[nutch] ] Opening new SolrCore at [/home/kyle/dev/solr-6.6.0/server/solr/nutch], dataDir=[/home/kyle/dev/solr-6.6.0/server/solr/nutch/data/]
2017-06-20 15:04:11.582 INFO  (coreLoadExecutor-6-thread-1) [   x:nutch] o.a.s.r.XSLTResponseWriter xsltCacheLifetimeSeconds=5
2017-06-20 15:04:11.982 INFO  (coreLoadExecutor-6-thread-1) [   x:nutch] o.a.s.u.UpdateHandler Using UpdateLog implementation: org.apache.solr.update.UpdateLog
2017-06-20 15:04:11.982 INFO  (coreLoadExecutor-6-thread-1) [   x:nutch] o.a.s.u.UpdateLog Initializing UpdateLog: dataDir= defaultSyncLevel=FLUSH numRecordsToKeep=100 maxNumLogsToKeep=10 numVersionBuckets=65536
2017-06-20 15:04:12.010 INFO  (coreLoadExecutor-6-thread-1) [   x:nutch] o.a.s.u.CommitTracker Hard AutoCommit: if uncommited for 15000ms; 
2017-06-20 15:04:12.011 INFO  (coreLoadExecutor-6-thread-1) [   x:nutch] o.a.s.u.CommitTracker Soft AutoCommit: disabled
2017-06-20 15:04:12.139 INFO  (coreLoadExecutor-6-thread-1) [   x:nutch] o.a.s.s.SolrIndexSearcher Opening [Searcher@53d521cf[nutch] main]
2017-06-20 15:04:12.153 INFO  (coreLoadExecutor-6-thread-1) [   x:nutch] o.a.s.r.ManagedResourceStorage File-based storage initialized to use dir: /home/kyle/dev/solr-6.6.0/server/solr/nutch/conf
2017-06-20 15:04:12.165 INFO  (coreLoadExecutor-6-thread-1) [   x:nutch] o.a.s.h.c.SpellCheckComponent Initializing spell checkers
2017-06-20 15:04:12.170 INFO  (coreLoadExecutor-6-thread-1) [   x:nutch] o.a.s.s.DirectSolrSpellChecker init: {name=default,field=_text_,classname=solr.DirectSolrSpellChecker,distanceMeasure=internal,accuracy=0.5,maxEdits=2,minPrefix=1,maxInspections=5,minQueryLength=4,maxQueryFrequency=0.01}
2017-06-20 15:04:12.172 INFO  (coreLoadExecutor-6-thread-1) [   x:nutch] o.a.s.h.c.QueryElevationComponent Loading QueryElevation from: /home/kyle/dev/solr-6.6.0/server/solr/nutch/conf/elevate.xml
2017-06-20 15:04:12.183 INFO  (coreLoadExecutor-6-thread-1) [   x:nutch] o.a.s.h.ReplicationHandler Commits will be reserved for  10000
2017-06-20 15:04:12.219 INFO  (searcherExecutor-7-thread-1-processing-x:nutch) [   x:nutch] o.a.s.c.QuerySenderListener QuerySenderListener sending requests to Searcher@53d521cf[nutch] main{ExitableDirectoryReader(UninvertingDirectoryReader(Uninverting(_g(6.6.0):C82/1:delGen=1)))}
2017-06-20 15:04:12.219 INFO  (searcherExecutor-7-thread-1-processing-x:nutch) [   x:nutch] o.a.s.c.QuerySenderListener QuerySenderListener done.
2017-06-20 15:04:12.219 INFO  (searcherExecutor-7-thread-1-processing-x:nutch) [   x:nutch] o.a.s.h.c.SpellCheckComponent Loading spell index for spellchecker: default
2017-06-20 15:04:12.220 INFO  (searcherExecutor-7-thread-1-processing-x:nutch) [   x:nutch] o.a.s.c.SolrCore [nutch] Registered new searcher Searcher@53d521cf[nutch] main{ExitableDirectoryReader(UninvertingDirectoryReader(Uninverting(_g(6.6.0):C82/1:delGen=1)))}
2017-06-20 15:06:08.090 INFO  (qtp1205044462-15) [   x:nutch] o.a.s.u.DirectUpdateHandler2 start commit{,optimize=false,openSearcher=true,waitSearcher=true,expungeDeletes=false,softCommit=false,prepareCommit=false}
2017-06-20 15:06:08.090 INFO  (qtp1205044462-15) [   x:nutch] o.a.s.u.DirectUpdateHandler2 No uncommitted changes. Skipping IW.commit.
2017-06-20 15:06:08.091 INFO  (qtp1205044462-15) [   x:nutch] o.a.s.u.DirectUpdateHandler2 end_commit_flush
2017-06-20 15:06:08.091 INFO  (qtp1205044462-15) [   x:nutch] o.a.s.u.p.LogUpdateProcessorFactory [nutch]  webapp=/solr path=/update params={waitSearcher=true&commit=true&softCommit=false&wt=javabin&version=2}{commit=} 0 31
2017-06-20 15:06:08.549 INFO  (qtp1205044462-19) [   x:nutch] o.a.s.u.DirectUpdateHandler2 start commit{,optimize=false,openSearcher=true,waitSearcher=true,expungeDeletes=false,softCommit=false,prepareCommit=false}
2017-06-20 15:06:08.549 INFO  (qtp1205044462-19) [   x:nutch] o.a.s.u.DirectUpdateHandler2 No uncommitted changes. Skipping IW.commit.
2017-06-20 15:06:08.550 INFO  (qtp1205044462-19) [   x:nutch] o.a.s.u.DirectUpdateHandler2 end_commit_flush
2017-06-20 15:06:08.550 INFO  (qtp1205044462-19) [   x:nutch] o.a.s.u.p.LogUpdateProcessorFactory [nutch]  webapp=/solr path=/update params={waitSearcher=true&commit=true&softCommit=false&wt=javabin&version=2}{commit=} 0 1
2017-06-20 15:06:11.398 INFO  (qtp1205044462-15) [   x:nutch] o.a.s.u.DirectUpdateHandler2 start commit{,optimize=false,openSearcher=true,waitSearcher=true,expungeDeletes=false,softCommit=false,prepareCommit=false}
2017-06-20 15:06:11.398 INFO  (qtp1205044462-15) [   x:nutch] o.a.s.u.DirectUpdateHandler2 No uncommitted changes. Skipping IW.commit.
2017-06-20 15:06:11.398 INFO  (qtp1205044462-15) [   x:nutch] o.a.s.u.DirectUpdateHandler2 end_commit_flush
2017-06-20 15:06:11.398 INFO  (qtp1205044462-15) [   x:nutch] o.a.s.u.p.LogUpdateProcessorFactory [nutch]  webapp=/solr path=/update params={waitSearcher=true&commit=true&softCommit=false&wt=javabin&version=2}{commit=} 0 0
2017-06-20 15:06:42.437 INFO  (qtp1205044462-19) [   x:nutch] o.a.s.u.p.LogUpdateProcessorFactory [nutch]  webapp=/solr path=/update params={wt=javabin&version=2}{add=[https://barnet.gov.uk/citizen-home (1570736651469062144)]} 0 152
2017-06-20 15:06:42.461 INFO  (qtp1205044462-13) [   x:nutch] o.a.s.u.DirectUpdateHandler2 start commit{,optimize=false,openSearcher=true,waitSearcher=true,expungeDeletes=false,softCommit=false,prepareCommit=false}
2017-06-20 15:06:42.461 INFO  (qtp1205044462-13) [   x:nutch] o.a.s.u.SolrIndexWriter Calling setCommitData with IW:org.apache.solr.update.SolrIndexWriter@33dc2ec9
2017-06-20 15:06:42.555 INFO  (qtp1205044462-13) [   x:nutch] o.a.s.s.SolrIndexSearcher Opening [Searcher@657b421d[nutch] main]
2017-06-20 15:06:42.559 INFO  (qtp1205044462-13) [   x:nutch] o.a.s.u.DirectUpdateHandler2 end_commit_flush
2017-06-20 15:06:42.560 INFO  (searcherExecutor-7-thread-1-processing-x:nutch) [   x:nutch] o.a.s.c.QuerySenderListener QuerySenderListener sending requests to Searcher@657b421d[nutch] main{ExitableDirectoryReader(UninvertingDirectoryReader(Uninverting(_g(6.6.0):C82/1:delGen=1) Uninverting(_h(6.6.0):C1)))}
2017-06-20 15:06:42.560 INFO  (searcherExecutor-7-thread-1-processing-x:nutch) [   x:nutch] o.a.s.c.QuerySenderListener QuerySenderListener done.
2017-06-20 15:06:42.560 INFO  (searcherExecutor-7-thread-1-processing-x:nutch) [   x:nutch] o.a.s.c.SolrCore [nutch] Registered new searcher Searcher@657b421d[nutch] main{ExitableDirectoryReader(UninvertingDirectoryReader(Uninverting(_g(6.6.0):C82/1:delGen=1) Uninverting(_h(6.6.0):C1)))}
2017-06-20 15:06:42.561 INFO  (qtp1205044462-13) [   x:nutch] o.a.s.u.p.LogUpdateProcessorFactory [nutch]  webapp=/solr path=/update params={waitSearcher=true&commit=true&softCommit=false&wt=javabin&version=2}{commit=} 0 100
2017-06-20 15:06:42.932 INFO  (qtp1205044462-16) [   x:nutch] o.a.s.u.DirectUpdateHandler2 start commit{,optimize=false,openSearcher=true,waitSearcher=true,expungeDeletes=false,softCommit=false,prepareCommit=false}
2017-06-20 15:06:42.933 INFO  (qtp1205044462-16) [   x:nutch] o.a.s.u.DirectUpdateHandler2 No uncommitted changes. Skipping IW.commit.
2017-06-20 15:06:42.933 INFO  (qtp1205044462-16) [   x:nutch] o.a.s.u.DirectUpdateHandler2 end_commit_flush
2017-06-20 15:06:42.933 INFO  (qtp1205044462-16) [   x:nutch] o.a.s.u.p.LogUpdateProcessorFactory [nutch]  webapp=/solr path=/update params={waitSearcher=true&commit=true&softCommit=false&wt=javabin&version=2}{commit=} 0 1
2017-06-20 15:06:46.018 INFO  (qtp1205044462-13) [   x:nutch] o.a.s.u.DirectUpdateHandler2 start commit{,optimize=false,openSearcher=true,waitSearcher=true,expungeDeletes=false,softCommit=false,prepareCommit=false}
2017-06-20 15:06:46.019 INFO  (qtp1205044462-13) [   x:nutch] o.a.s.u.DirectUpdateHandler2 No uncommitted changes. Skipping IW.commit.
2017-06-20 15:06:46.019 INFO  (qtp1205044462-13) [   x:nutch] o.a.s.u.DirectUpdateHandler2 end_commit_flush
2017-06-20 15:06:46.020 INFO  (qtp1205044462-13) [   x:nutch] o.a.s.u.p.LogUpdateProcessorFactory [nutch]  webapp=/solr path=/update params={waitSearcher=true&commit=true&softCommit=false&wt=javabin&version=2}{commit=} 0 2
2017-06-20 15:07:52.699 INFO  (qtp1205044462-16) [   ] o.a.s.c.TransientSolrCoreCacheDefault Allocating transient cache for 2147483647 transient cores
2017-06-20 15:07:53.456 INFO  (qtp1205044462-15) [   ] o.a.s.s.HttpSolrCall [admin] webapp=null path=/admin/cores params={indexInfo=false&wt=json&_=1497971273123} status=0 QTime=4
2017-06-20 15:07:53.510 INFO  (qtp1205044462-17) [   ] o.a.s.s.HttpSolrCall [admin] webapp=null path=/admin/info/system params={wt=json&_=1497971273126} status=0 QTime=55
2017-06-20 15:07:53.528 INFO  (qtp1205044462-18) [   x:nutch] o.a.s.c.S.Request [nutch]  webapp=/solr path=/select params={q={!term+f%3Dheadings}Advice+on+staying+safe+during+the+heatwave&indent=on&wt=json&_=1497971273390} hits=30 status=0 QTime=51
2017-06-20 15:07:59.684 INFO  (qtp1205044462-12) [   ] o.a.s.s.HttpSolrCall [admin] webapp=null path=/admin/cores params={indexInfo=false&wt=json&_=1497971273123} status=0 QTime=0
2017-06-20 15:07:59.704 INFO  (qtp1205044462-13) [   ] o.a.s.s.HttpSolrCall [admin] webapp=null path=/admin/info/system params={wt=json&_=1497971273126} status=0 QTime=17
2017-06-20 15:07:59.704 INFO  (qtp1205044462-16) [   x:nutch] o.a.s.c.S.Request [nutch]  webapp=/solr path=/config params={wt=json&_=1497971279649} status=0 QTime=12
2017-06-20 15:07:59.714 INFO  (qtp1205044462-21) [   x:nutch] o.a.s.c.S.Request [nutch]  webapp=/solr path=/admin/luke params={show=schema&wt=json&_=1497971279649} status=0 QTime=24
2017-06-20 15:07:59.785 INFO  (qtp1205044462-15) [   x:nutch] o.a.s.c.S.Request [nutch]  webapp=/solr path=/admin/luke params={numTerms=0&wt=json&_=1497971279649} status=0 QTime=13
2017-06-20 15:08:13.941 INFO  (qtp1205044462-21) [   ] o.a.s.s.HttpSolrCall [admin] webapp=null path=/admin/cores params={indexInfo=false&wt=json&_=1497971293667} status=0 QTime=0
2017-06-20 15:08:13.954 INFO  (qtp1205044462-18) [   x:nutch] o.a.s.c.S.Request [nutch]  webapp=/solr path=/admin/luke params={show=schema&wt=json&_=1497971293897} status=0 QTime=3
2017-06-20 15:08:13.958 INFO  (qtp1205044462-12) [   x:nutch] o.a.s.c.S.Request [nutch]  webapp=/solr path=/config params={wt=json&_=1497971293897} status=0 QTime=0
2017-06-20 15:08:13.981 INFO  (qtp1205044462-21) [   ] o.a.s.s.HttpSolrCall [admin] webapp=null path=/admin/info/system params={wt=json&_=1497971293668} status=0 QTime=31
2017-06-20 15:08:14.072 INFO  (qtp1205044462-19) [   x:nutch] o.a.s.c.S.Request [nutch]  webapp=/solr path=/admin/luke params={numTerms=0&wt=json&_=1497971293897} status=0 QTime=2
2017-06-20 15:17:33.716 INFO  (qtp1205044462-18) [   x:nutch] o.a.s.u.p.LogUpdateProcessorFactory [nutch]  webapp=/solr path=/update params={wt=javabin&version=2}{add=[https://barnet.gov.uk/citizen-home/Downloads/Annual-accounts.html (1570737334062678016), https://barnet.gov.uk/citizen-home/Downloads/application-to-reregister-a-childs-birth.html (1570737334074212352), https://barnet.gov.uk/citizen-home/adult-social-care.html (1570737334076309504), https://barnet.gov.uk/citizen-home/adult-social-care/About-adult-social-care.html (1570737334081552384), https://barnet.gov.uk/citizen-home/adult-social-care/advice-and-support.html (1570737334084698112), https://barnet.gov.uk/citizen-home/adult-social-care/advice-and-support/transport-options/blue-badge-parking-permits.html (1570737334088892416), https://barnet.gov.uk/citizen-home/births-deaths-marriages-and-nationality.html (1570737334122446848), https://barnet.gov.uk/citizen-home/business.html (1570737334126641152), https://barnet.gov.uk/citizen-home/children-young-people-and-families.html (1570737334138175488), https://barnet.gov.uk/citizen-home/council-and-democracy.html (1570737334144466944), ... (82 adds)]} 0 402
2017-06-20 15:17:33.741 INFO  (qtp1205044462-19) [   x:nutch] o.a.s.u.DirectUpdateHandler2 start commit{,optimize=false,openSearcher=true,waitSearcher=true,expungeDeletes=false,softCommit=false,prepareCommit=false}
2017-06-20 15:17:33.742 INFO  (qtp1205044462-19) [   x:nutch] o.a.s.u.SolrIndexWriter Calling setCommitData with IW:org.apache.solr.update.SolrIndexWriter@33dc2ec9
2017-06-20 15:17:33.976 INFO  (qtp1205044462-19) [   x:nutch] o.a.s.s.SolrIndexSearcher Opening [Searcher@5e48673c[nutch] main]
2017-06-20 15:17:33.978 INFO  (searcherExecutor-7-thread-1-processing-x:nutch) [   x:nutch] o.a.s.c.QuerySenderListener QuerySenderListener sending requests to Searcher@5e48673c[nutch] main{ExitableDirectoryReader(UninvertingDirectoryReader(Uninverting(_h(6.6.0):C1) Uninverting(_i(6.6.0):C82)))}
2017-06-20 15:17:33.978 INFO  (searcherExecutor-7-thread-1-processing-x:nutch) [   x:nutch] o.a.s.c.QuerySenderListener QuerySenderListener done.
2017-06-20 15:17:33.978 INFO  (qtp1205044462-19) [   x:nutch] o.a.s.u.DirectUpdateHandler2 end_commit_flush
2017-06-20 15:17:33.978 INFO  (searcherExecutor-7-thread-1-processing-x:nutch) [   x:nutch] o.a.s.c.SolrCore [nutch] Registered new searcher Searcher@5e48673c[nutch] main{ExitableDirectoryReader(UninvertingDirectoryReader(Uninverting(_h(6.6.0):C1) Uninverting(_i(6.6.0):C82)))}
2017-06-20 15:17:33.981 INFO  (qtp1205044462-19) [   x:nutch] o.a.s.u.p.LogUpdateProcessorFactory [nutch]  webapp=/solr path=/update params={waitSearcher=true&commit=true&softCommit=false&wt=javabin&version=2}{commit=} 0 240
2017-06-20 15:17:34.417 INFO  (qtp1205044462-20) [   x:nutch] o.a.s.u.DirectUpdateHandler2 start commit{,optimize=false,openSearcher=true,waitSearcher=true,expungeDeletes=false,softCommit=false,prepareCommit=false}
2017-06-20 15:17:34.417 INFO  (qtp1205044462-20) [   x:nutch] o.a.s.u.DirectUpdateHandler2 No uncommitted changes. Skipping IW.commit.
2017-06-20 15:17:34.417 INFO  (qtp1205044462-20) [   x:nutch] o.a.s.u.DirectUpdateHandler2 end_commit_flush
2017-06-20 15:17:34.417 INFO  (qtp1205044462-20) [   x:nutch] o.a.s.u.p.LogUpdateProcessorFactory [nutch]  webapp=/solr path=/update params={waitSearcher=true&commit=true&softCommit=false&wt=javabin&version=2}{commit=} 0 1
2017-06-20 15:17:38.655 INFO  (qtp1205044462-17) [   x:nutch] o.a.s.u.p.LogUpdateProcessorFactory [nutch]  webapp=/solr path=/update params={wt=javabin&version=2}{delete=[https://www.barnet.gov.uk/citizen-home/parking-roads-and-pavements/Parking/parking-permits.html (-1570737339659976704), https://barnet.gov.uk/citizen-home (-1570737339659976705)]} 0 1
2017-06-20 15:17:38.691 INFO  (qtp1205044462-19) [   x:nutch] o.a.s.u.DirectUpdateHandler2 start commit{,optimize=false,openSearcher=true,waitSearcher=true,expungeDeletes=false,softCommit=false,prepareCommit=false}
2017-06-20 15:17:38.691 INFO  (qtp1205044462-19) [   x:nutch] o.a.s.u.SolrIndexWriter Calling setCommitData with IW:org.apache.solr.update.SolrIndexWriter@33dc2ec9
2017-06-20 15:17:38.708 INFO  (qtp1205044462-19) [   x:nutch] o.a.s.s.SolrIndexSearcher Opening [Searcher@b06659b[nutch] main]
2017-06-20 15:17:38.709 INFO  (qtp1205044462-19) [   x:nutch] o.a.s.u.DirectUpdateHandler2 end_commit_flush
2017-06-20 15:17:38.709 INFO  (searcherExecutor-7-thread-1-processing-x:nutch) [   x:nutch] o.a.s.c.QuerySenderListener QuerySenderListener sending requests to Searcher@b06659b[nutch] main{ExitableDirectoryReader(UninvertingDirectoryReader(Uninverting(_i(6.6.0):C82/1:delGen=1)))}
2017-06-20 15:17:38.710 INFO  (searcherExecutor-7-thread-1-processing-x:nutch) [   x:nutch] o.a.s.c.QuerySenderListener QuerySenderListener done.
2017-06-20 15:17:38.710 INFO  (searcherExecutor-7-thread-1-processing-x:nutch) [   x:nutch] o.a.s.c.SolrCore [nutch] Registered new searcher Searcher@b06659b[nutch] main{ExitableDirectoryReader(UninvertingDirectoryReader(Uninverting(_i(6.6.0):C82/1:delGen=1)))}
2017-06-20 15:17:38.713 INFO  (qtp1205044462-19) [   x:nutch] o.a.s.u.p.LogUpdateProcessorFactory [nutch]  webapp=/solr path=/update params={waitSearcher=true&commit=true&softCommit=false&wt=javabin&version=2}{commit=} 0 22
2017-06-20 15:18:03.242 INFO  (qtp1205044462-15) [   ] o.a.s.s.HttpSolrCall [admin] webapp=null path=/admin/cores params={indexInfo=false&wt=json&_=1497971882976} status=0 QTime=0
2017-06-20 15:18:03.252 INFO  (qtp1205044462-20) [   x:nutch] o.a.s.c.S.Request [nutch]  webapp=/solr path=/admin/luke params={show=schema&wt=json&_=1497971883204} status=0 QTime=3
2017-06-20 15:18:03.259 INFO  (qtp1205044462-15) [   x:nutch] o.a.s.c.S.Request [nutch]  webapp=/solr path=/config params={wt=json&_=1497971883205} status=0 QTime=0
2017-06-20 15:18:03.275 INFO  (qtp1205044462-16) [   ] o.a.s.s.HttpSolrCall [admin] webapp=null path=/admin/info/system params={wt=json&_=1497971882977} status=0 QTime=32
2017-06-20 15:18:03.313 INFO  (qtp1205044462-15) [   x:nutch] o.a.s.c.S.Request [nutch]  webapp=/solr path=/admin/luke params={numTerms=0&wt=json&_=1497971883204} status=0 QTime=1
2017-06-20 15:18:32.212 INFO  (ShutdownMonitor) [   ] o.a.s.c.CoreContainer Shutting down CoreContainer instance=388357135
2017-06-20 15:18:32.212 INFO  (ShutdownMonitor) [   ] o.a.s.m.SolrMetricManager Closing metric reporters for: solr.node
2017-06-20 15:18:32.212 INFO  (ShutdownMonitor) [   ] o.a.s.m.SolrMetricManager Closing metric reporters for: solr.jvm
2017-06-20 15:18:32.212 INFO  (ShutdownMonitor) [   ] o.a.s.m.SolrMetricManager Closing metric reporters for: solr.jetty
2017-06-20 15:18:32.214 INFO  (coreCloseExecutor-12-thread-1) [   x:nutch] o.a.s.c.SolrCore [nutch]  CLOSING SolrCore org.apache.solr.core.SolrCore@55e57fb1
2017-06-20 15:18:32.225 INFO  (coreCloseExecutor-12-thread-1) [   x:nutch] o.a.s.m.SolrMetricManager Closing metric reporters for: solr.core.nutch
