2017-06-20 15:38:47.418 INFO  (main) [   ] o.e.j.s.Server jetty-9.3.14.v20161028
2017-06-20 15:38:47.756 INFO  (main) [   ] o.a.s.s.SolrDispatchFilter  ___      _       Welcome to Apache Solr™ version 6.6.0
2017-06-20 15:38:47.756 INFO  (main) [   ] o.a.s.s.SolrDispatchFilter / __| ___| |_ _   Starting in standalone mode on port 8983
2017-06-20 15:38:47.756 INFO  (main) [   ] o.a.s.s.SolrDispatchFilter \__ \/ _ \ | '_|  Install dir: /home/kyle/dev/solr-6.6.0
2017-06-20 15:38:47.777 INFO  (main) [   ] o.a.s.s.SolrDispatchFilter |___/\___/_|_|    Start time: 2017-06-20T15:38:47.757Z
2017-06-20 15:38:47.777 INFO  (main) [   ] o.a.s.s.StartupLoggingUtils Property solr.log.muteconsole given. Muting ConsoleAppender named CONSOLE
2017-06-20 15:38:47.800 INFO  (main) [   ] o.a.s.c.SolrResourceLoader Using system property solr.solr.home: /home/kyle/dev/solr-6.6.0/server/solr
2017-06-20 15:38:47.806 INFO  (main) [   ] o.a.s.c.SolrXmlConfig Loading container configuration from /home/kyle/dev/solr-6.6.0/server/solr/solr.xml
2017-06-20 15:38:48.179 INFO  (main) [   ] o.a.s.u.UpdateShardHandler Creating UpdateShardHandler HTTP client with params: socketTimeout=600000&connTimeout=60000&retry=true
2017-06-20 15:38:48.344 INFO  (main) [   ] o.a.s.c.CorePropertiesLocator Found 1 core definitions underneath /home/kyle/dev/solr-6.6.0/server/solr
2017-06-20 15:38:48.345 INFO  (main) [   ] o.a.s.c.CorePropertiesLocator Cores are: [nutch]
2017-06-20 15:38:48.407 INFO  (main) [   ] o.e.j.s.Server Started @1442ms
2017-06-20 15:38:48.416 INFO  (coreLoadExecutor-6-thread-1) [   x:nutch] o.a.s.c.SolrResourceLoader [nutch] Added 51 libs to classloader, from paths: [/home/kyle/dev/solr-6.6.0/contrib/clustering/lib, /home/kyle/dev/solr-6.6.0/contrib/extraction/lib, /home/kyle/dev/solr-6.6.0/contrib/langid/lib, /home/kyle/dev/solr-6.6.0/contrib/velocity/lib, /home/kyle/dev/solr-6.6.0/dist]
2017-06-20 15:38:48.612 INFO  (coreLoadExecutor-6-thread-1) [   x:nutch] o.a.s.c.SolrConfig Using Lucene MatchVersion: 6.6.0
2017-06-20 15:38:48.721 WARN  (coreLoadExecutor-6-thread-1) [   x:nutch] o.a.s.s.ManagedIndexSchemaFactory The schema has been upgraded to managed, but the non-managed schema schema.xml is still loadable.  PLEASE REMOVE THIS FILE.
2017-06-20 15:38:48.778 INFO  (coreLoadExecutor-6-thread-1) [   x:nutch] o.a.s.s.IndexSchema [nutch] Schema name=example-data-driven-schema
2017-06-20 15:38:49.437 INFO  (coreLoadExecutor-6-thread-1) [   x:nutch] o.a.s.s.IndexSchema Loaded schema example-data-driven-schema/1.6 with uniqueid field id
2017-06-20 15:38:49.478 INFO  (coreLoadExecutor-6-thread-1) [   x:nutch] o.a.s.c.CoreContainer Creating SolrCore 'nutch' using configuration from instancedir /home/kyle/dev/solr-6.6.0/server/solr/nutch, trusted=true
2017-06-20 15:38:49.518 INFO  (coreLoadExecutor-6-thread-1) [   x:nutch] o.a.s.c.SolrCore solr.RecoveryStrategy.Builder
2017-06-20 15:38:49.525 INFO  (coreLoadExecutor-6-thread-1) [   x:nutch] o.a.s.c.SolrCore [[nutch] ] Opening new SolrCore at [/home/kyle/dev/solr-6.6.0/server/solr/nutch], dataDir=[/home/kyle/dev/solr-6.6.0/server/solr/nutch/data/]
2017-06-20 15:38:49.584 INFO  (coreLoadExecutor-6-thread-1) [   x:nutch] o.a.s.r.XSLTResponseWriter xsltCacheLifetimeSeconds=5
2017-06-20 15:38:50.132 INFO  (coreLoadExecutor-6-thread-1) [   x:nutch] o.a.s.u.UpdateHandler Using UpdateLog implementation: org.apache.solr.update.UpdateLog
2017-06-20 15:38:50.133 INFO  (coreLoadExecutor-6-thread-1) [   x:nutch] o.a.s.u.UpdateLog Initializing UpdateLog: dataDir= defaultSyncLevel=FLUSH numRecordsToKeep=100 maxNumLogsToKeep=10 numVersionBuckets=65536
2017-06-20 15:38:50.212 INFO  (coreLoadExecutor-6-thread-1) [   x:nutch] o.a.s.u.CommitTracker Hard AutoCommit: if uncommited for 15000ms; 
2017-06-20 15:38:50.212 INFO  (coreLoadExecutor-6-thread-1) [   x:nutch] o.a.s.u.CommitTracker Soft AutoCommit: disabled
2017-06-20 15:38:50.330 INFO  (coreLoadExecutor-6-thread-1) [   x:nutch] o.a.s.s.SolrIndexSearcher Opening [Searcher@55b21a73[nutch] main]
2017-06-20 15:38:50.348 INFO  (coreLoadExecutor-6-thread-1) [   x:nutch] o.a.s.r.ManagedResourceStorage File-based storage initialized to use dir: /home/kyle/dev/solr-6.6.0/server/solr/nutch/conf
2017-06-20 15:38:50.373 INFO  (coreLoadExecutor-6-thread-1) [   x:nutch] o.a.s.h.c.SpellCheckComponent Initializing spell checkers
2017-06-20 15:38:50.384 INFO  (coreLoadExecutor-6-thread-1) [   x:nutch] o.a.s.s.DirectSolrSpellChecker init: {name=default,field=_text_,classname=solr.DirectSolrSpellChecker,distanceMeasure=internal,accuracy=0.5,maxEdits=2,minPrefix=1,maxInspections=5,minQueryLength=4,maxQueryFrequency=0.01}
2017-06-20 15:38:50.388 INFO  (coreLoadExecutor-6-thread-1) [   x:nutch] o.a.s.h.c.QueryElevationComponent Loading QueryElevation from: /home/kyle/dev/solr-6.6.0/server/solr/nutch/conf/elevate.xml
2017-06-20 15:38:50.421 INFO  (coreLoadExecutor-6-thread-1) [   x:nutch] o.a.s.h.ReplicationHandler Commits will be reserved for  10000
2017-06-20 15:38:50.509 INFO  (searcherExecutor-7-thread-1-processing-x:nutch) [   x:nutch] o.a.s.c.QuerySenderListener QuerySenderListener sending requests to Searcher@55b21a73[nutch] main{ExitableDirectoryReader(UninvertingDirectoryReader())}
2017-06-20 15:38:50.509 INFO  (searcherExecutor-7-thread-1-processing-x:nutch) [   x:nutch] o.a.s.c.QuerySenderListener QuerySenderListener done.
2017-06-20 15:38:50.510 INFO  (searcherExecutor-7-thread-1-processing-x:nutch) [   x:nutch] o.a.s.h.c.SpellCheckComponent Loading spell index for spellchecker: default
2017-06-20 15:38:50.512 INFO  (searcherExecutor-7-thread-1-processing-x:nutch) [   x:nutch] o.a.s.c.SolrCore [nutch] Registered new searcher Searcher@55b21a73[nutch] main{ExitableDirectoryReader(UninvertingDirectoryReader())}
2017-06-20 15:43:57.050 INFO  (qtp1205044462-15) [   x:nutch] o.a.s.u.DirectUpdateHandler2 start commit{,optimize=false,openSearcher=true,waitSearcher=true,expungeDeletes=false,softCommit=false,prepareCommit=false}
2017-06-20 15:43:57.050 INFO  (qtp1205044462-15) [   x:nutch] o.a.s.u.DirectUpdateHandler2 No uncommitted changes. Skipping IW.commit.
2017-06-20 15:43:57.051 INFO  (qtp1205044462-15) [   x:nutch] o.a.s.u.DirectUpdateHandler2 end_commit_flush
2017-06-20 15:43:57.051 INFO  (qtp1205044462-15) [   x:nutch] o.a.s.u.p.LogUpdateProcessorFactory [nutch]  webapp=/solr path=/update params={waitSearcher=true&commit=true&softCommit=false&wt=javabin&version=2}{commit=} 0 19
2017-06-20 15:43:57.979 INFO  (qtp1205044462-12) [   x:nutch] o.a.s.u.DirectUpdateHandler2 start commit{,optimize=false,openSearcher=true,waitSearcher=true,expungeDeletes=false,softCommit=false,prepareCommit=false}
2017-06-20 15:43:57.979 INFO  (qtp1205044462-12) [   x:nutch] o.a.s.u.DirectUpdateHandler2 No uncommitted changes. Skipping IW.commit.
2017-06-20 15:43:57.980 INFO  (qtp1205044462-12) [   x:nutch] o.a.s.u.DirectUpdateHandler2 end_commit_flush
2017-06-20 15:43:57.980 INFO  (qtp1205044462-12) [   x:nutch] o.a.s.u.p.LogUpdateProcessorFactory [nutch]  webapp=/solr path=/update params={waitSearcher=true&commit=true&softCommit=false&wt=javabin&version=2}{commit=} 0 1
2017-06-20 15:44:01.290 INFO  (qtp1205044462-19) [   x:nutch] o.a.s.u.DirectUpdateHandler2 start commit{,optimize=false,openSearcher=true,waitSearcher=true,expungeDeletes=false,softCommit=false,prepareCommit=false}
2017-06-20 15:44:01.291 INFO  (qtp1205044462-19) [   x:nutch] o.a.s.u.DirectUpdateHandler2 No uncommitted changes. Skipping IW.commit.
2017-06-20 15:44:01.291 INFO  (qtp1205044462-19) [   x:nutch] o.a.s.u.DirectUpdateHandler2 end_commit_flush
2017-06-20 15:44:01.291 INFO  (qtp1205044462-19) [   x:nutch] o.a.s.u.p.LogUpdateProcessorFactory [nutch]  webapp=/solr path=/update params={waitSearcher=true&commit=true&softCommit=false&wt=javabin&version=2}{commit=} 0 1
2017-06-20 15:44:34.409 INFO  (qtp1205044462-16) [   x:nutch] o.a.s.u.p.LogUpdateProcessorFactory [nutch]  webapp=/solr path=/update params={wt=javabin&version=2}{add=[https://barnet.gov.uk/citizen-home (1570739033831636992)]} 0 111
2017-06-20 15:44:34.430 INFO  (qtp1205044462-17) [   x:nutch] o.a.s.u.DirectUpdateHandler2 start commit{,optimize=false,openSearcher=true,waitSearcher=true,expungeDeletes=false,softCommit=false,prepareCommit=false}
2017-06-20 15:44:34.430 INFO  (qtp1205044462-17) [   x:nutch] o.a.s.u.SolrIndexWriter Calling setCommitData with IW:org.apache.solr.update.SolrIndexWriter@5bd9f2f9
2017-06-20 15:44:34.564 INFO  (qtp1205044462-17) [   x:nutch] o.a.s.s.SolrIndexSearcher Opening [Searcher@2df02fe3[nutch] main]
2017-06-20 15:44:34.565 INFO  (qtp1205044462-17) [   x:nutch] o.a.s.u.DirectUpdateHandler2 end_commit_flush
2017-06-20 15:44:34.566 INFO  (searcherExecutor-7-thread-1-processing-x:nutch) [   x:nutch] o.a.s.c.QuerySenderListener QuerySenderListener sending requests to Searcher@2df02fe3[nutch] main{ExitableDirectoryReader(UninvertingDirectoryReader(Uninverting(_l(6.6.0):C1)))}
2017-06-20 15:44:34.566 INFO  (searcherExecutor-7-thread-1-processing-x:nutch) [   x:nutch] o.a.s.c.QuerySenderListener QuerySenderListener done.
2017-06-20 15:44:34.566 INFO  (searcherExecutor-7-thread-1-processing-x:nutch) [   x:nutch] o.a.s.c.SolrCore [nutch] Registered new searcher Searcher@2df02fe3[nutch] main{ExitableDirectoryReader(UninvertingDirectoryReader(Uninverting(_l(6.6.0):C1)))}
2017-06-20 15:44:34.566 INFO  (qtp1205044462-17) [   x:nutch] o.a.s.u.p.LogUpdateProcessorFactory [nutch]  webapp=/solr path=/update params={waitSearcher=true&commit=true&softCommit=false&wt=javabin&version=2}{commit=} 0 137
2017-06-20 15:44:35.280 INFO  (qtp1205044462-21) [   x:nutch] o.a.s.u.DirectUpdateHandler2 start commit{,optimize=false,openSearcher=true,waitSearcher=true,expungeDeletes=false,softCommit=false,prepareCommit=false}
2017-06-20 15:44:35.280 INFO  (qtp1205044462-21) [   x:nutch] o.a.s.u.DirectUpdateHandler2 No uncommitted changes. Skipping IW.commit.
2017-06-20 15:44:35.281 INFO  (qtp1205044462-21) [   x:nutch] o.a.s.u.DirectUpdateHandler2 end_commit_flush
2017-06-20 15:44:35.281 INFO  (qtp1205044462-21) [   x:nutch] o.a.s.u.p.LogUpdateProcessorFactory [nutch]  webapp=/solr path=/update params={waitSearcher=true&commit=true&softCommit=false&wt=javabin&version=2}{commit=} 0 1
2017-06-20 15:44:38.353 INFO  (qtp1205044462-17) [   x:nutch] o.a.s.u.DirectUpdateHandler2 start commit{,optimize=false,openSearcher=true,waitSearcher=true,expungeDeletes=false,softCommit=false,prepareCommit=false}
2017-06-20 15:44:38.353 INFO  (qtp1205044462-17) [   x:nutch] o.a.s.u.DirectUpdateHandler2 No uncommitted changes. Skipping IW.commit.
2017-06-20 15:44:38.353 INFO  (qtp1205044462-17) [   x:nutch] o.a.s.u.DirectUpdateHandler2 end_commit_flush
2017-06-20 15:44:38.353 INFO  (qtp1205044462-17) [   x:nutch] o.a.s.u.p.LogUpdateProcessorFactory [nutch]  webapp=/solr path=/update params={waitSearcher=true&commit=true&softCommit=false&wt=javabin&version=2}{commit=} 0 0
2017-06-20 15:52:02.231 INFO  (qtp1205044462-19) [   ] o.a.s.c.TransientSolrCoreCacheDefault Allocating transient cache for 2147483647 transient cores
2017-06-20 15:52:02.817 INFO  (qtp1205044462-17) [   ] o.a.s.s.HttpSolrCall [admin] webapp=null path=/admin/cores params={indexInfo=false&wt=json&_=1497973922577} status=0 QTime=2
2017-06-20 15:52:02.820 INFO  (qtp1205044462-12) [   x:nutch] o.a.s.c.S.Request [nutch]  webapp=/solr path=/admin/luke params={numTerms=0&show=index&wt=json&_=1497973922799} status=0 QTime=1
2017-06-20 15:52:02.838 INFO  (qtp1205044462-17) [   x:nutch] o.a.s.c.S.Request [nutch]  webapp=/solr path=/replication params={wt=json&command=details&_=1497973922799} status=0 QTime=4
2017-06-20 15:52:02.855 INFO  (qtp1205044462-13) [   x:nutch] o.a.s.c.S.Request [nutch]  webapp=/solr path=/admin/ping params={action=status&wt=json&_=1497973922579&ts=1497973922579} status=503 QTime=9
2017-06-20 15:52:02.886 INFO  (qtp1205044462-18) [   ] o.a.s.s.HttpSolrCall [admin] webapp=null path=/admin/info/system params={wt=json&_=1497973922578} status=0 QTime=70
2017-06-20 15:52:02.888 INFO  (qtp1205044462-16) [   x:nutch] o.a.s.c.S.Request [nutch]  webapp=/solr path=/admin/system params={wt=json&_=1497973922799} status=0 QTime=49
2017-06-20 15:52:04.580 INFO  (qtp1205044462-19) [   ] o.a.s.s.HttpSolrCall [admin] webapp=null path=/admin/cores params={indexInfo=false&wt=json&_=1497973922577} status=0 QTime=1
2017-06-20 15:52:04.586 INFO  (qtp1205044462-17) [   ] o.a.s.s.HttpSolrCall [admin] webapp=null path=/admin/info/system params={wt=json&_=1497973922578} status=0 QTime=6
2017-06-20 15:52:04.596 INFO  (qtp1205044462-20) [   x:nutch] o.a.s.c.S.Request [nutch]  webapp=/solr path=/config params={wt=json&_=1497973924544} status=0 QTime=3
2017-06-20 15:52:04.599 INFO  (qtp1205044462-12) [   x:nutch] o.a.s.c.S.Request [nutch]  webapp=/solr path=/admin/luke params={show=schema&wt=json&_=1497973922799} status=0 QTime=5
2017-06-20 15:52:04.663 INFO  (qtp1205044462-21) [   x:nutch] o.a.s.c.S.Request [nutch]  webapp=/solr path=/admin/luke params={numTerms=0&wt=json&_=1497973922799} status=0 QTime=11
2017-06-20 15:52:09.504 INFO  (qtp1205044462-16) [   ] o.a.s.s.HttpSolrCall [admin] webapp=null path=/admin/cores params={indexInfo=false&wt=json&_=1497973922577} status=0 QTime=0
2017-06-20 15:52:09.513 INFO  (qtp1205044462-13) [   x:nutch] o.a.s.c.S.Request [nutch]  webapp=/solr path=/admin/luke params={show=schema&wt=json&_=1497973922799} status=0 QTime=3
2017-06-20 15:52:09.519 INFO  (qtp1205044462-19) [   ] o.a.s.s.HttpSolrCall [admin] webapp=null path=/admin/info/system params={wt=json&_=1497973922578} status=0 QTime=10
2017-06-20 15:52:09.523 INFO  (qtp1205044462-20) [   x:nutch] o.a.s.c.S.Request [nutch]  webapp=/solr path=/config params={wt=json&_=1497973924544} status=0 QTime=0
2017-06-20 15:52:09.571 INFO  (qtp1205044462-12) [   x:nutch] o.a.s.c.S.Request [nutch]  webapp=/solr path=/admin/luke params={numTerms=0&wt=json&_=1497973922799} status=0 QTime=3
2017-06-20 15:52:11.316 INFO  (qtp1205044462-21) [   x:nutch] o.a.s.c.S.Request [nutch]  webapp=/solr path=/admin/luke params={fl=id&wt=json&_=1497973922799} status=0 QTime=7
2017-06-20 15:52:12.945 INFO  (qtp1205044462-18) [   ] o.a.s.s.HttpSolrCall [admin] webapp=null path=/admin/cores params={indexInfo=false&wt=json&_=1497973922577} status=0 QTime=0
2017-06-20 15:52:12.953 INFO  (qtp1205044462-17) [   ] o.a.s.s.HttpSolrCall [admin] webapp=null path=/admin/info/system params={wt=json&_=1497973922578} status=0 QTime=6
2017-06-20 15:52:12.988 INFO  (qtp1205044462-18) [   x:nutch] o.a.s.c.S.Request [nutch]  webapp=/solr path=/select params={q={!term+f%3Did}https://barnet.gov.uk/citizen-home&indent=on&wt=json&_=1497973932901} hits=1 status=0 QTime=30
2017-06-20 15:53:57.560 INFO  (qtp1205044462-16) [   x:nutch] o.a.s.u.p.LogUpdateProcessorFactory [nutch]  webapp=/solr path=/update params={wt=javabin&version=2}{add=[https://barnet.gov.uk/citizen-home/Downloads/Annual-accounts.html (1570739624041512960), https://barnet.gov.uk/citizen-home/Downloads/application-to-reregister-a-childs-birth.html (1570739624049901568), https://barnet.gov.uk/citizen-home/adult-social-care.html (1570739624053047296), https://barnet.gov.uk/citizen-home/adult-social-care/About-adult-social-care.html (1570739624069824512), https://barnet.gov.uk/citizen-home/adult-social-care/advice-and-support.html (1570739624074018816), https://barnet.gov.uk/citizen-home/adult-social-care/advice-and-support/transport-options/blue-badge-parking-permits.html (1570739624082407424), https://barnet.gov.uk/citizen-home/births-deaths-marriages-and-nationality.html (1570739624091844608), https://barnet.gov.uk/citizen-home/business.html (1570739624094990336), https://barnet.gov.uk/citizen-home/children-young-people-and-families.html (1570739624097087488), https://barnet.gov.uk/citizen-home/council-and-democracy.html (1570739624100233216), ... (81 adds)]} 0 350
2017-06-20 15:53:57.588 INFO  (qtp1205044462-13) [   x:nutch] o.a.s.u.DirectUpdateHandler2 start commit{,optimize=false,openSearcher=true,waitSearcher=true,expungeDeletes=false,softCommit=false,prepareCommit=false}
2017-06-20 15:53:57.588 INFO  (qtp1205044462-13) [   x:nutch] o.a.s.u.SolrIndexWriter Calling setCommitData with IW:org.apache.solr.update.SolrIndexWriter@5bd9f2f9
2017-06-20 15:53:57.848 INFO  (qtp1205044462-13) [   x:nutch] o.a.s.s.SolrIndexSearcher Opening [Searcher@e18c6b5[nutch] main]
2017-06-20 15:53:57.850 INFO  (searcherExecutor-7-thread-1-processing-x:nutch) [   x:nutch] o.a.s.c.QuerySenderListener QuerySenderListener sending requests to Searcher@e18c6b5[nutch] main{ExitableDirectoryReader(UninvertingDirectoryReader(Uninverting(_l(6.6.0):C1) Uninverting(_m(6.6.0):C81)))}
2017-06-20 15:53:57.850 INFO  (searcherExecutor-7-thread-1-processing-x:nutch) [   x:nutch] o.a.s.c.QuerySenderListener QuerySenderListener done.
2017-06-20 15:53:57.851 INFO  (searcherExecutor-7-thread-1-processing-x:nutch) [   x:nutch] o.a.s.c.SolrCore [nutch] Registered new searcher Searcher@e18c6b5[nutch] main{ExitableDirectoryReader(UninvertingDirectoryReader(Uninverting(_l(6.6.0):C1) Uninverting(_m(6.6.0):C81)))}
2017-06-20 15:53:57.853 INFO  (qtp1205044462-13) [   x:nutch] o.a.s.u.DirectUpdateHandler2 end_commit_flush
2017-06-20 15:53:57.853 INFO  (qtp1205044462-13) [   x:nutch] o.a.s.u.p.LogUpdateProcessorFactory [nutch]  webapp=/solr path=/update params={waitSearcher=true&commit=true&softCommit=false&wt=javabin&version=2}{commit=} 0 266
2017-06-20 15:53:58.462 INFO  (qtp1205044462-19) [   x:nutch] o.a.s.u.DirectUpdateHandler2 start commit{,optimize=false,openSearcher=true,waitSearcher=true,expungeDeletes=false,softCommit=false,prepareCommit=false}
2017-06-20 15:53:58.462 INFO  (qtp1205044462-19) [   x:nutch] o.a.s.u.DirectUpdateHandler2 No uncommitted changes. Skipping IW.commit.
2017-06-20 15:53:58.463 INFO  (qtp1205044462-19) [   x:nutch] o.a.s.u.DirectUpdateHandler2 end_commit_flush
2017-06-20 15:53:58.463 INFO  (qtp1205044462-19) [   x:nutch] o.a.s.u.p.LogUpdateProcessorFactory [nutch]  webapp=/solr path=/update params={waitSearcher=true&commit=true&softCommit=false&wt=javabin&version=2}{commit=} 0 1
2017-06-20 15:54:01.129 INFO  (qtp1205044462-20) [   x:nutch] o.a.s.u.p.LogUpdateProcessorFactory [nutch]  webapp=/solr path=/update params={wt=javabin&version=2}{delete=[https://www.barnet.gov.uk/citizen-home/parking-roads-and-pavements/Parking/parking-permits.html (-1570739628149833728), https://barnet.gov.uk/citizen-home (-1570739628149833729)]} 0 1
2017-06-20 15:54:01.148 INFO  (qtp1205044462-13) [   x:nutch] o.a.s.u.DirectUpdateHandler2 start commit{,optimize=false,openSearcher=true,waitSearcher=true,expungeDeletes=false,softCommit=false,prepareCommit=false}
2017-06-20 15:54:01.148 INFO  (qtp1205044462-13) [   x:nutch] o.a.s.u.SolrIndexWriter Calling setCommitData with IW:org.apache.solr.update.SolrIndexWriter@5bd9f2f9
2017-06-20 15:54:01.165 INFO  (qtp1205044462-13) [   x:nutch] o.a.s.s.SolrIndexSearcher Opening [Searcher@30c64899[nutch] main]
2017-06-20 15:54:01.166 INFO  (searcherExecutor-7-thread-1-processing-x:nutch) [   x:nutch] o.a.s.c.QuerySenderListener QuerySenderListener sending requests to Searcher@30c64899[nutch] main{ExitableDirectoryReader(UninvertingDirectoryReader(Uninverting(_m(6.6.0):C81/1:delGen=1)))}
2017-06-20 15:54:01.166 INFO  (qtp1205044462-13) [   x:nutch] o.a.s.u.DirectUpdateHandler2 end_commit_flush
2017-06-20 15:54:01.166 INFO  (searcherExecutor-7-thread-1-processing-x:nutch) [   x:nutch] o.a.s.c.QuerySenderListener QuerySenderListener done.
2017-06-20 15:54:01.166 INFO  (searcherExecutor-7-thread-1-processing-x:nutch) [   x:nutch] o.a.s.c.SolrCore [nutch] Registered new searcher Searcher@30c64899[nutch] main{ExitableDirectoryReader(UninvertingDirectoryReader(Uninverting(_m(6.6.0):C81/1:delGen=1)))}
2017-06-20 15:54:01.168 INFO  (qtp1205044462-13) [   x:nutch] o.a.s.u.p.LogUpdateProcessorFactory [nutch]  webapp=/solr path=/update params={waitSearcher=true&commit=true&softCommit=false&wt=javabin&version=2}{commit=} 0 20
2017-06-20 15:56:31.339 INFO  (qtp1205044462-15) [   ] o.a.s.s.HttpSolrCall [admin] webapp=null path=/admin/cores params={indexInfo=false&wt=json&_=1497974191009} status=0 QTime=0
2017-06-20 15:56:31.345 INFO  (qtp1205044462-18) [   x:nutch] o.a.s.c.S.Request [nutch]  webapp=/solr path=/select params={q={!term+f%3Did}https://barnet.gov.uk/citizen-home&indent=on&wt=json&_=1497974191277} hits=0 status=0 QTime=1
2017-06-20 15:56:31.351 INFO  (qtp1205044462-21) [   ] o.a.s.s.HttpSolrCall [admin] webapp=null path=/admin/info/system params={wt=json&_=1497974191010} status=0 QTime=11
2017-06-20 15:56:33.464 INFO  (qtp1205044462-19) [   ] o.a.s.s.HttpSolrCall [admin] webapp=null path=/admin/cores params={indexInfo=false&wt=json&_=1497974193244} status=0 QTime=0
2017-06-20 15:56:33.473 INFO  (qtp1205044462-20) [   x:nutch] o.a.s.c.S.Request [nutch]  webapp=/solr path=/select params={q={!term+f%3Did}https://barnet.gov.uk/citizen-home&indent=on&wt=json&_=1497974193410} hits=0 status=0 QTime=0
2017-06-20 15:56:33.483 INFO  (qtp1205044462-17) [   ] o.a.s.s.HttpSolrCall [admin] webapp=null path=/admin/info/system params={wt=json&_=1497974193245} status=0 QTime=12
2017-06-20 15:56:35.281 INFO  (qtp1205044462-18) [   ] o.a.s.s.HttpSolrCall [admin] webapp=null path=/admin/cores params={indexInfo=false&wt=json&_=1497974193244} status=0 QTime=0
2017-06-20 15:56:35.302 INFO  (qtp1205044462-12) [   x:nutch] o.a.s.c.S.Request [nutch]  webapp=/solr path=/config params={wt=json&_=1497974195254} status=0 QTime=1
2017-06-20 15:56:35.303 INFO  (qtp1205044462-21) [   x:nutch] o.a.s.c.S.Request [nutch]  webapp=/solr path=/admin/luke params={show=schema&wt=json&_=1497974195253} status=0 QTime=5
2017-06-20 15:56:35.313 INFO  (qtp1205044462-16) [   ] o.a.s.s.HttpSolrCall [admin] webapp=null path=/admin/info/system params={wt=json&_=1497974193245} status=0 QTime=31
2017-06-20 15:56:35.357 INFO  (qtp1205044462-15) [   x:nutch] o.a.s.c.S.Request [nutch]  webapp=/solr path=/admin/luke params={numTerms=0&wt=json&_=1497974195253} status=0 QTime=1
2017-06-20 15:56:37.140 INFO  (qtp1205044462-20) [   ] o.a.s.s.HttpSolrCall [admin] webapp=null path=/admin/cores params={indexInfo=false&wt=json&_=1497974193244} status=0 QTime=0
2017-06-20 15:56:37.153 INFO  (qtp1205044462-19) [   ] o.a.s.s.HttpSolrCall [admin] webapp=null path=/admin/info/system params={wt=json&_=1497974193245} status=0 QTime=10
2017-06-20 15:56:37.158 INFO  (qtp1205044462-20) [   x:nutch] o.a.s.c.S.Request [nutch]  webapp=/solr path=/admin/luke params={show=schema&wt=json&_=1497974195253} status=0 QTime=2
2017-06-20 15:56:37.160 INFO  (qtp1205044462-13) [   x:nutch] o.a.s.c.S.Request [nutch]  webapp=/solr path=/config params={wt=json&_=1497974195254} status=0 QTime=0
2017-06-20 15:56:37.232 INFO  (qtp1205044462-12) [   x:nutch] o.a.s.c.S.Request [nutch]  webapp=/solr path=/admin/luke params={numTerms=0&wt=json&_=1497974195253} status=0 QTime=1
2017-06-20 15:56:38.328 INFO  (qtp1205044462-21) [   x:nutch] o.a.s.c.S.Request [nutch]  webapp=/solr path=/admin/luke params={fl=id&wt=json&_=1497974195253} status=0 QTime=4
2017-06-20 15:56:40.301 INFO  (qtp1205044462-16) [   ] o.a.s.s.HttpSolrCall [admin] webapp=null path=/admin/cores params={indexInfo=false&wt=json&_=1497974193244} status=0 QTime=0
2017-06-20 15:56:40.314 INFO  (qtp1205044462-15) [   ] o.a.s.s.HttpSolrCall [admin] webapp=null path=/admin/info/system params={wt=json&_=1497974193245} status=0 QTime=8
2017-06-20 15:56:40.314 INFO  (qtp1205044462-18) [   x:nutch] o.a.s.c.S.Request [nutch]  webapp=/solr path=/select params={q={!term+f%3Did}https://barnet.gov.uk/citizen-home/adult-social-care.html&indent=on&wt=json&_=1497974193410} hits=1 status=0 QTime=0
2017-06-20 15:56:43.489 INFO  (qtp1205044462-19) [   ] o.a.s.s.HttpSolrCall [admin] webapp=null path=/admin/cores params={indexInfo=false&wt=json&_=1497974193244} status=0 QTime=0
2017-06-20 15:56:43.502 INFO  (qtp1205044462-19) [   x:nutch] o.a.s.c.S.Request [nutch]  webapp=/solr path=/admin/luke params={show=schema&wt=json&_=1497974195253} status=0 QTime=2
2017-06-20 15:56:43.522 INFO  (qtp1205044462-15) [   x:nutch] o.a.s.c.S.Request [nutch]  webapp=/solr path=/config params={wt=json&_=1497974195254} status=0 QTime=0
2017-06-20 15:56:43.525 INFO  (qtp1205044462-20) [   ] o.a.s.s.HttpSolrCall [admin] webapp=null path=/admin/info/system params={wt=json&_=1497974193245} status=0 QTime=21
2017-06-20 15:56:43.585 INFO  (qtp1205044462-15) [   x:nutch] o.a.s.c.S.Request [nutch]  webapp=/solr path=/admin/luke params={numTerms=0&wt=json&_=1497974195253} status=0 QTime=1
2017-06-20 15:56:45.608 INFO  (qtp1205044462-16) [   ] o.a.s.s.HttpSolrCall [admin] webapp=null path=/admin/cores params={indexInfo=false&wt=json&_=1497974193244} status=0 QTime=0
2017-06-20 15:56:45.621 INFO  (qtp1205044462-21) [   x:nutch] o.a.s.c.S.Request [nutch]  webapp=/solr path=/admin/luke params={show=schema&wt=json&_=1497974195253} status=0 QTime=2
2017-06-20 15:56:45.631 INFO  (qtp1205044462-12) [   x:nutch] o.a.s.c.S.Request [nutch]  webapp=/solr path=/config params={wt=json&_=1497974195254} status=0 QTime=0
2017-06-20 15:56:45.652 INFO  (qtp1205044462-13) [   ] o.a.s.s.HttpSolrCall [admin] webapp=null path=/admin/info/system params={wt=json&_=1497974193245} status=0 QTime=32
2017-06-20 15:56:45.721 INFO  (qtp1205044462-12) [   x:nutch] o.a.s.c.S.Request [nutch]  webapp=/solr path=/admin/luke params={numTerms=0&wt=json&_=1497974195253} status=0 QTime=1
2017-06-20 15:58:34.737 INFO  (qtp1205044462-21) [   ] o.a.s.s.HttpSolrCall [admin] webapp=null path=/admin/cores params={indexInfo=false&wt=json&_=1497974314276} status=0 QTime=0
2017-06-20 15:58:34.754 INFO  (qtp1205044462-19) [   x:nutch] o.a.s.c.S.Request [nutch]  webapp=/solr path=/config params={wt=json&_=1497974314653} status=0 QTime=0
2017-06-20 15:58:34.756 INFO  (qtp1205044462-20) [   x:nutch] o.a.s.c.S.Request [nutch]  webapp=/solr path=/admin/luke params={show=schema&wt=json&_=1497974314652} status=0 QTime=2
2017-06-20 15:58:34.766 INFO  (qtp1205044462-18) [   ] o.a.s.s.HttpSolrCall [admin] webapp=null path=/admin/info/system params={wt=json&_=1497974314281} status=0 QTime=20
2017-06-20 15:58:34.876 INFO  (qtp1205044462-12) [   x:nutch] o.a.s.c.S.Request [nutch]  webapp=/solr path=/admin/luke params={numTerms=0&wt=json&_=1497974314652} status=0 QTime=1
2017-06-20 15:58:38.466 INFO  (qtp1205044462-15) [   ] o.a.s.s.HttpSolrCall [admin] webapp=null path=/admin/cores params={indexInfo=false&wt=json&_=1497974314276} status=0 QTime=0
2017-06-20 15:58:38.470 INFO  (qtp1205044462-13) [   x:nutch] o.a.s.c.S.Request [nutch]  webapp=/solr path=/admin/luke params={show=schema&wt=json&_=1497974314652} status=0 QTime=1
2017-06-20 15:58:38.471 INFO  (qtp1205044462-17) [   x:nutch] o.a.s.c.S.Request [nutch]  webapp=/solr path=/config params={wt=json&_=1497974314653} status=0 QTime=0
2017-06-20 15:58:38.479 INFO  (qtp1205044462-21) [   ] o.a.s.s.HttpSolrCall [admin] webapp=null path=/admin/info/system params={wt=json&_=1497974314281} status=0 QTime=6
2017-06-20 15:58:38.513 INFO  (qtp1205044462-19) [   x:nutch] o.a.s.c.S.Request [nutch]  webapp=/solr path=/admin/luke params={numTerms=0&wt=json&_=1497974314652} status=0 QTime=0
2017-06-20 15:58:42.634 INFO  (qtp1205044462-18) [   x:nutch] o.a.s.c.S.Request [nutch]  webapp=/solr path=/admin/luke params={fl=headings&wt=json&_=1497974314652} status=0 QTime=2
2017-06-20 15:58:45.202 INFO  (qtp1205044462-21) [   x:nutch] o.a.s.c.S.Request [nutch]  webapp=/solr path=/admin/luke params={fl=headings&wt=json&_=1497974314652} status=0 QTime=1
2017-06-20 15:58:47.482 INFO  (qtp1205044462-19) [   ] o.a.s.s.HttpSolrCall [admin] webapp=null path=/admin/cores params={indexInfo=false&wt=json&_=1497974314276} status=0 QTime=0
2017-06-20 15:58:47.496 INFO  (qtp1205044462-15) [   x:nutch] o.a.s.c.S.Request [nutch]  webapp=/solr path=/replication params={wt=json&command=details&_=1497974327474} status=0 QTime=0
2017-06-20 15:58:47.504 INFO  (qtp1205044462-12) [   ] o.a.s.s.HttpSolrCall [admin] webapp=null path=/admin/info/system params={wt=json&_=1497974314281} status=0 QTime=18
2017-06-20 15:58:47.506 INFO  (qtp1205044462-13) [   x:nutch] o.a.s.c.S.Request [nutch]  webapp=/solr path=/admin/luke params={numTerms=0&show=index&wt=json&_=1497974314652} status=0 QTime=14
2017-06-20 15:58:47.507 INFO  (qtp1205044462-17) [   x:nutch] o.a.s.c.S.Request [nutch]  webapp=/solr path=/admin/ping params={action=status&wt=json&_=1497974314281&ts=1497974314281} status=503 QTime=2
2017-06-20 15:58:47.514 INFO  (qtp1205044462-18) [   x:nutch] o.a.s.c.S.Request [nutch]  webapp=/solr path=/admin/system params={wt=json&_=1497974327474} status=0 QTime=12
2017-06-20 15:58:50.772 INFO  (qtp1205044462-19) [   ] o.a.s.s.HttpSolrCall [admin] webapp=null path=/admin/cores params={indexInfo=false&wt=json&_=1497974314276} status=0 QTime=0
2017-06-20 15:58:50.779 INFO  (qtp1205044462-12) [   x:nutch] o.a.s.c.S.Request [nutch]  webapp=/solr path=/admin/file params={wt=json&_=1497974330756} status=0 QTime=0
2017-06-20 15:58:50.782 INFO  (qtp1205044462-15) [   ] o.a.s.s.HttpSolrCall [admin] webapp=null path=/admin/info/system params={wt=json&_=1497974314281} status=0 QTime=9
2017-06-20 15:58:50.816 INFO  (qtp1205044462-18) [   x:nutch] o.a.s.c.S.Request [nutch]  webapp=/solr path=/admin/file params={file=lang&wt=json&_=1497974330756} status=0 QTime=1
2017-06-20 15:58:52.353 INFO  (qtp1205044462-16) [   ] o.a.s.s.HttpSolrCall [admin] webapp=null path=/admin/cores params={indexInfo=false&wt=json&_=1497974314276} status=0 QTime=0
2017-06-20 15:58:52.361 INFO  (qtp1205044462-16) [   x:nutch] o.a.s.c.S.Request [nutch]  webapp=/solr path=/admin/luke params={show=schema&wt=json&_=1497974314652} status=0 QTime=1
2017-06-20 15:58:52.362 INFO  (qtp1205044462-20) [   x:nutch] o.a.s.c.S.Request [nutch]  webapp=/solr path=/config params={wt=json&_=1497974314653} status=0 QTime=0
2017-06-20 15:58:52.369 INFO  (qtp1205044462-13) [   ] o.a.s.s.HttpSolrCall [admin] webapp=null path=/admin/info/system params={wt=json&_=1497974314281} status=0 QTime=9
2017-06-20 15:58:52.402 INFO  (qtp1205044462-17) [   x:nutch] o.a.s.c.S.Request [nutch]  webapp=/solr path=/admin/luke params={numTerms=0&wt=json&_=1497974314652} status=0 QTime=0
2017-06-20 15:58:53.616 INFO  (qtp1205044462-15) [   ] o.a.s.s.HttpSolrCall [admin] webapp=null path=/admin/cores params={indexInfo=false&wt=json&_=1497974314276} status=0 QTime=0
2017-06-20 15:58:53.630 INFO  (qtp1205044462-19) [   ] o.a.s.s.HttpSolrCall [admin] webapp=null path=/admin/info/system params={wt=json&_=1497974314281} status=0 QTime=7
2017-06-20 15:58:53.631 INFO  (qtp1205044462-20) [   x:nutch] o.a.s.c.S.Request [nutch]  webapp=/solr path=/admin/luke params={show=schema&wt=json&_=1497974314652} status=0 QTime=1
2017-06-20 15:58:53.639 INFO  (qtp1205044462-19) [   x:nutch] o.a.s.c.S.Request [nutch]  webapp=/solr path=/config params={wt=json&_=1497974314653} status=0 QTime=0
2017-06-20 15:58:53.666 INFO  (qtp1205044462-20) [   x:nutch] o.a.s.c.S.Request [nutch]  webapp=/solr path=/admin/luke params={numTerms=0&wt=json&_=1497974314652} status=0 QTime=1
2017-06-20 15:58:54.519 INFO  (qtp1205044462-16) [   x:nutch] o.a.s.c.S.Request [nutch]  webapp=/solr path=/admin/luke params={fl=id&wt=json&_=1497974314652} status=0 QTime=3
2017-06-20 15:58:59.719 INFO  (qtp1205044462-13) [   ] o.a.s.s.HttpSolrCall [admin] webapp=null path=/admin/cores params={indexInfo=false&wt=json&_=1497974314276} status=0 QTime=0
2017-06-20 15:58:59.723 INFO  (qtp1205044462-13) [   x:nutch] o.a.s.c.S.Request [nutch]  webapp=/solr path=/select params={q={!term+f%3Did}https://barnet.gov.uk/citizen-home/council-and-democracy.html&indent=on&wt=json&_=1497974339665} hits=1 status=0 QTime=1
2017-06-20 15:58:59.729 INFO  (qtp1205044462-17) [   ] o.a.s.s.HttpSolrCall [admin] webapp=null path=/admin/info/system params={wt=json&_=1497974314281} status=0 QTime=7
2017-06-21 09:42:58.692 INFO  (qtp1205044462-18) [   x:nutch] o.a.s.s.SolrIndexSearcher Opening [Searcher@1a2c40f8[nutch] realtime]
2017-06-21 09:42:58.694 INFO  (qtp1205044462-18) [   x:nutch] o.a.s.u.DirectUpdateHandler2 start commit{,optimize=false,openSearcher=true,waitSearcher=true,expungeDeletes=false,softCommit=false,prepareCommit=false}
2017-06-21 09:42:58.694 INFO  (qtp1205044462-18) [   x:nutch] o.a.s.u.SolrIndexWriter Calling setCommitData with IW:org.apache.solr.update.SolrIndexWriter@5bd9f2f9
2017-06-21 09:42:58.701 INFO  (qtp1205044462-18) [   x:nutch] o.a.s.s.SolrIndexSearcher Opening [Searcher@62212ee6[nutch] main]
2017-06-21 09:42:58.707 INFO  (searcherExecutor-7-thread-1-processing-x:nutch) [   x:nutch] o.a.s.c.QuerySenderListener QuerySenderListener sending requests to Searcher@62212ee6[nutch] main{ExitableDirectoryReader(UninvertingDirectoryReader())}
2017-06-21 09:42:58.707 INFO  (searcherExecutor-7-thread-1-processing-x:nutch) [   x:nutch] o.a.s.c.QuerySenderListener QuerySenderListener done.
2017-06-21 09:42:58.707 INFO  (qtp1205044462-18) [   x:nutch] o.a.s.u.DirectUpdateHandler2 end_commit_flush
2017-06-21 09:42:58.707 INFO  (searcherExecutor-7-thread-1-processing-x:nutch) [   x:nutch] o.a.s.c.SolrCore [nutch] Registered new searcher Searcher@62212ee6[nutch] main{ExitableDirectoryReader(UninvertingDirectoryReader())}
2017-06-21 09:42:58.709 INFO  (qtp1205044462-18) [   x:nutch] o.a.s.u.p.LogUpdateProcessorFactory [nutch]  webapp=/solr path=/update params={stream.body=<delete><query>*:*</query></delete>&commit=true}{deleteByQuery=*:* (-1570806881196179456),commit=} 0 167
2017-06-21 09:48:32.173 INFO  (ShutdownMonitor) [   ] o.a.s.c.CoreContainer Shutting down CoreContainer instance=388357135
2017-06-21 09:48:32.173 INFO  (ShutdownMonitor) [   ] o.a.s.m.SolrMetricManager Closing metric reporters for: solr.node
2017-06-21 09:48:32.174 INFO  (ShutdownMonitor) [   ] o.a.s.m.SolrMetricManager Closing metric reporters for: solr.jvm
2017-06-21 09:48:32.174 INFO  (ShutdownMonitor) [   ] o.a.s.m.SolrMetricManager Closing metric reporters for: solr.jetty
2017-06-21 09:48:32.180 INFO  (coreCloseExecutor-12-thread-1) [   x:nutch] o.a.s.c.SolrCore [nutch]  CLOSING SolrCore org.apache.solr.core.SolrCore@3bb9c430
2017-06-21 09:48:32.192 INFO  (coreCloseExecutor-12-thread-1) [   x:nutch] o.a.s.m.SolrMetricManager Closing metric reporters for: solr.core.nutch
