2017-06-20 14:45:19.124 INFO  (main) [   ] o.e.j.s.Server jetty-9.3.14.v20161028
2017-06-20 14:45:19.484 INFO  (main) [   ] o.a.s.s.SolrDispatchFilter  ___      _       Welcome to Apache Solr™ version 6.6.0
2017-06-20 14:45:19.484 INFO  (main) [   ] o.a.s.s.SolrDispatchFilter / __| ___| |_ _   Starting in standalone mode on port 8983
2017-06-20 14:45:19.484 INFO  (main) [   ] o.a.s.s.SolrDispatchFilter \__ \/ _ \ | '_|  Install dir: /home/kyle/dev/solr-6.6.0
2017-06-20 14:45:19.499 INFO  (main) [   ] o.a.s.s.SolrDispatchFilter |___/\___/_|_|    Start time: 2017-06-20T14:45:19.485Z
2017-06-20 14:45:19.499 INFO  (main) [   ] o.a.s.s.StartupLoggingUtils Property solr.log.muteconsole given. Muting ConsoleAppender named CONSOLE
2017-06-20 14:45:19.515 INFO  (main) [   ] o.a.s.c.SolrResourceLoader Using system property solr.solr.home: /home/kyle/dev/solr-6.6.0/server/solr
2017-06-20 14:45:19.523 INFO  (main) [   ] o.a.s.c.SolrXmlConfig Loading container configuration from /home/kyle/dev/solr-6.6.0/server/solr/solr.xml
2017-06-20 14:45:20.126 INFO  (main) [   ] o.a.s.u.UpdateShardHandler Creating UpdateShardHandler HTTP client with params: socketTimeout=600000&connTimeout=60000&retry=true
2017-06-20 14:45:20.634 INFO  (main) [   ] o.a.s.c.CorePropertiesLocator Found 1 core definitions underneath /home/kyle/dev/solr-6.6.0/server/solr
2017-06-20 14:45:20.639 INFO  (main) [   ] o.a.s.c.CorePropertiesLocator Cores are: [nutch]
2017-06-20 14:45:20.899 INFO  (main) [   ] o.e.j.s.Server Started @2271ms
2017-06-20 14:45:20.924 INFO  (coreLoadExecutor-6-thread-1) [   x:nutch] o.a.s.c.SolrResourceLoader [nutch] Added 51 libs to classloader, from paths: [/home/kyle/dev/solr-6.6.0/contrib/clustering/lib, /home/kyle/dev/solr-6.6.0/contrib/extraction/lib, /home/kyle/dev/solr-6.6.0/contrib/langid/lib, /home/kyle/dev/solr-6.6.0/contrib/velocity/lib, /home/kyle/dev/solr-6.6.0/dist]
2017-06-20 14:45:21.333 INFO  (coreLoadExecutor-6-thread-1) [   x:nutch] o.a.s.c.SolrConfig Using Lucene MatchVersion: 6.6.0
2017-06-20 14:45:21.635 WARN  (coreLoadExecutor-6-thread-1) [   x:nutch] o.a.s.s.ManagedIndexSchemaFactory The schema has been upgraded to managed, but the non-managed schema schema.xml is still loadable.  PLEASE REMOVE THIS FILE.
2017-06-20 14:45:21.735 INFO  (coreLoadExecutor-6-thread-1) [   x:nutch] o.a.s.s.IndexSchema [nutch] Schema name=example-data-driven-schema
2017-06-20 14:45:22.371 INFO  (coreLoadExecutor-6-thread-1) [   x:nutch] o.a.s.s.IndexSchema Loaded schema example-data-driven-schema/1.6 with uniqueid field id
2017-06-20 14:45:22.418 INFO  (coreLoadExecutor-6-thread-1) [   x:nutch] o.a.s.c.CoreContainer Creating SolrCore 'nutch' using configuration from instancedir /home/kyle/dev/solr-6.6.0/server/solr/nutch, trusted=true
2017-06-20 14:45:22.452 INFO  (coreLoadExecutor-6-thread-1) [   x:nutch] o.a.s.c.SolrCore solr.RecoveryStrategy.Builder
2017-06-20 14:45:22.458 INFO  (coreLoadExecutor-6-thread-1) [   x:nutch] o.a.s.c.SolrCore [[nutch] ] Opening new SolrCore at [/home/kyle/dev/solr-6.6.0/server/solr/nutch], dataDir=[/home/kyle/dev/solr-6.6.0/server/solr/nutch/data/]
2017-06-20 14:45:22.508 INFO  (coreLoadExecutor-6-thread-1) [   x:nutch] o.a.s.r.XSLTResponseWriter xsltCacheLifetimeSeconds=5
2017-06-20 14:45:23.103 INFO  (coreLoadExecutor-6-thread-1) [   x:nutch] o.a.s.u.UpdateHandler Using UpdateLog implementation: org.apache.solr.update.UpdateLog
2017-06-20 14:45:23.103 INFO  (coreLoadExecutor-6-thread-1) [   x:nutch] o.a.s.u.UpdateLog Initializing UpdateLog: dataDir= defaultSyncLevel=FLUSH numRecordsToKeep=100 maxNumLogsToKeep=10 numVersionBuckets=65536
2017-06-20 14:45:23.194 INFO  (coreLoadExecutor-6-thread-1) [   x:nutch] o.a.s.u.CommitTracker Hard AutoCommit: if uncommited for 15000ms; 
2017-06-20 14:45:23.194 INFO  (coreLoadExecutor-6-thread-1) [   x:nutch] o.a.s.u.CommitTracker Soft AutoCommit: disabled
2017-06-20 14:45:23.449 INFO  (coreLoadExecutor-6-thread-1) [   x:nutch] o.a.s.s.SolrIndexSearcher Opening [Searcher@5af7c964[nutch] main]
2017-06-20 14:45:23.463 INFO  (coreLoadExecutor-6-thread-1) [   x:nutch] o.a.s.r.ManagedResourceStorage File-based storage initialized to use dir: /home/kyle/dev/solr-6.6.0/server/solr/nutch/conf
2017-06-20 14:45:23.483 INFO  (coreLoadExecutor-6-thread-1) [   x:nutch] o.a.s.h.c.SpellCheckComponent Initializing spell checkers
2017-06-20 14:45:23.490 INFO  (coreLoadExecutor-6-thread-1) [   x:nutch] o.a.s.s.DirectSolrSpellChecker init: {name=default,field=_text_,classname=solr.DirectSolrSpellChecker,distanceMeasure=internal,accuracy=0.5,maxEdits=2,minPrefix=1,maxInspections=5,minQueryLength=4,maxQueryFrequency=0.01}
2017-06-20 14:45:23.493 INFO  (coreLoadExecutor-6-thread-1) [   x:nutch] o.a.s.h.c.QueryElevationComponent Loading QueryElevation from: /home/kyle/dev/solr-6.6.0/server/solr/nutch/conf/elevate.xml
2017-06-20 14:45:23.514 INFO  (coreLoadExecutor-6-thread-1) [   x:nutch] o.a.s.h.ReplicationHandler Commits will be reserved for  10000
2017-06-20 14:45:23.562 INFO  (searcherExecutor-7-thread-1-processing-x:nutch) [   x:nutch] o.a.s.c.QuerySenderListener QuerySenderListener sending requests to Searcher@5af7c964[nutch] main{ExitableDirectoryReader(UninvertingDirectoryReader(Uninverting(_e(6.6.0):C82/1:delGen=1)))}
2017-06-20 14:45:23.563 INFO  (searcherExecutor-7-thread-1-processing-x:nutch) [   x:nutch] o.a.s.c.QuerySenderListener QuerySenderListener done.
2017-06-20 14:45:23.563 INFO  (searcherExecutor-7-thread-1-processing-x:nutch) [   x:nutch] o.a.s.h.c.SpellCheckComponent Loading spell index for spellchecker: default
2017-06-20 14:45:23.573 INFO  (searcherExecutor-7-thread-1-processing-x:nutch) [   x:nutch] o.a.s.c.SolrCore [nutch] Registered new searcher Searcher@5af7c964[nutch] main{ExitableDirectoryReader(UninvertingDirectoryReader(Uninverting(_e(6.6.0):C82/1:delGen=1)))}
2017-06-20 14:46:13.673 INFO  (qtp1205044462-18) [   x:nutch] o.a.s.u.DirectUpdateHandler2 start commit{,optimize=false,openSearcher=true,waitSearcher=true,expungeDeletes=false,softCommit=false,prepareCommit=false}
2017-06-20 14:46:13.673 INFO  (qtp1205044462-18) [   x:nutch] o.a.s.u.DirectUpdateHandler2 No uncommitted changes. Skipping IW.commit.
2017-06-20 14:46:13.674 INFO  (qtp1205044462-18) [   x:nutch] o.a.s.u.DirectUpdateHandler2 end_commit_flush
2017-06-20 14:46:13.674 INFO  (qtp1205044462-18) [   x:nutch] o.a.s.u.p.LogUpdateProcessorFactory [nutch]  webapp=/solr path=/update params={waitSearcher=true&commit=true&softCommit=false&wt=javabin&version=2}{commit=} 0 16
2017-06-20 14:46:14.309 INFO  (qtp1205044462-13) [   x:nutch] o.a.s.u.DirectUpdateHandler2 start commit{,optimize=false,openSearcher=true,waitSearcher=true,expungeDeletes=false,softCommit=false,prepareCommit=false}
2017-06-20 14:46:14.310 INFO  (qtp1205044462-13) [   x:nutch] o.a.s.u.DirectUpdateHandler2 No uncommitted changes. Skipping IW.commit.
2017-06-20 14:46:14.311 INFO  (qtp1205044462-13) [   x:nutch] o.a.s.u.DirectUpdateHandler2 end_commit_flush
2017-06-20 14:46:14.312 INFO  (qtp1205044462-13) [   x:nutch] o.a.s.u.p.LogUpdateProcessorFactory [nutch]  webapp=/solr path=/update params={waitSearcher=true&commit=true&softCommit=false&wt=javabin&version=2}{commit=} 0 2
2017-06-20 14:46:17.004 INFO  (qtp1205044462-20) [   x:nutch] o.a.s.u.DirectUpdateHandler2 start commit{,optimize=false,openSearcher=true,waitSearcher=true,expungeDeletes=false,softCommit=false,prepareCommit=false}
2017-06-20 14:46:17.004 INFO  (qtp1205044462-20) [   x:nutch] o.a.s.u.DirectUpdateHandler2 No uncommitted changes. Skipping IW.commit.
2017-06-20 14:46:17.005 INFO  (qtp1205044462-20) [   x:nutch] o.a.s.u.DirectUpdateHandler2 end_commit_flush
2017-06-20 14:46:17.005 INFO  (qtp1205044462-20) [   x:nutch] o.a.s.u.p.LogUpdateProcessorFactory [nutch]  webapp=/solr path=/update params={waitSearcher=true&commit=true&softCommit=false&wt=javabin&version=2}{commit=} 0 1
2017-06-20 14:46:46.884 INFO  (qtp1205044462-17) [   x:nutch] o.a.s.s.ManagedIndexSchema Upgraded to managed schema at /home/kyle/dev/solr-6.6.0/server/solr/nutch/conf/managed-schema
2017-06-20 14:46:46.940 INFO  (qtp1205044462-17) [   x:nutch] o.a.s.u.p.LogUpdateProcessorFactory [nutch]  webapp=/solr path=/update params={wt=javabin&version=2}{add=[https://barnet.gov.uk/citizen-home (1570735397943640064)]} 0 181
2017-06-20 14:46:46.962 INFO  (qtp1205044462-20) [   x:nutch] o.a.s.u.DirectUpdateHandler2 start commit{,optimize=false,openSearcher=true,waitSearcher=true,expungeDeletes=false,softCommit=false,prepareCommit=false}
2017-06-20 14:46:46.965 INFO  (qtp1205044462-20) [   x:nutch] o.a.s.u.SolrIndexWriter Calling setCommitData with IW:org.apache.solr.update.SolrIndexWriter@39e6638a
2017-06-20 14:46:47.083 INFO  (qtp1205044462-20) [   x:nutch] o.a.s.s.SolrIndexSearcher Opening [Searcher@5f0d4f25[nutch] main]
2017-06-20 14:46:47.087 INFO  (searcherExecutor-7-thread-1-processing-x:nutch) [   x:nutch] o.a.s.c.QuerySenderListener QuerySenderListener sending requests to Searcher@5f0d4f25[nutch] main{ExitableDirectoryReader(UninvertingDirectoryReader(Uninverting(_e(6.6.0):C82/1:delGen=1) Uninverting(_f(6.6.0):C1)))}
2017-06-20 14:46:47.088 INFO  (searcherExecutor-7-thread-1-processing-x:nutch) [   x:nutch] o.a.s.c.QuerySenderListener QuerySenderListener done.
2017-06-20 14:46:47.089 INFO  (searcherExecutor-7-thread-1-processing-x:nutch) [   x:nutch] o.a.s.c.SolrCore [nutch] Registered new searcher Searcher@5f0d4f25[nutch] main{ExitableDirectoryReader(UninvertingDirectoryReader(Uninverting(_e(6.6.0):C82/1:delGen=1) Uninverting(_f(6.6.0):C1)))}
2017-06-20 14:46:47.095 INFO  (qtp1205044462-20) [   x:nutch] o.a.s.u.DirectUpdateHandler2 end_commit_flush
2017-06-20 14:46:47.095 INFO  (qtp1205044462-20) [   x:nutch] o.a.s.u.p.LogUpdateProcessorFactory [nutch]  webapp=/solr path=/update params={waitSearcher=true&commit=true&softCommit=false&wt=javabin&version=2}{commit=} 0 133
2017-06-20 14:46:47.835 INFO  (qtp1205044462-19) [   x:nutch] o.a.s.u.DirectUpdateHandler2 start commit{,optimize=false,openSearcher=true,waitSearcher=true,expungeDeletes=false,softCommit=false,prepareCommit=false}
2017-06-20 14:46:47.835 INFO  (qtp1205044462-19) [   x:nutch] o.a.s.u.DirectUpdateHandler2 No uncommitted changes. Skipping IW.commit.
2017-06-20 14:46:47.836 INFO  (qtp1205044462-19) [   x:nutch] o.a.s.u.DirectUpdateHandler2 end_commit_flush
2017-06-20 14:46:47.836 INFO  (qtp1205044462-19) [   x:nutch] o.a.s.u.p.LogUpdateProcessorFactory [nutch]  webapp=/solr path=/update params={waitSearcher=true&commit=true&softCommit=false&wt=javabin&version=2}{commit=} 0 1
2017-06-20 14:46:50.705 INFO  (qtp1205044462-21) [   x:nutch] o.a.s.u.DirectUpdateHandler2 start commit{,optimize=false,openSearcher=true,waitSearcher=true,expungeDeletes=false,softCommit=false,prepareCommit=false}
2017-06-20 14:46:50.705 INFO  (qtp1205044462-21) [   x:nutch] o.a.s.u.DirectUpdateHandler2 No uncommitted changes. Skipping IW.commit.
2017-06-20 14:46:50.705 INFO  (qtp1205044462-21) [   x:nutch] o.a.s.u.DirectUpdateHandler2 end_commit_flush
2017-06-20 14:46:50.706 INFO  (qtp1205044462-21) [   x:nutch] o.a.s.u.p.LogUpdateProcessorFactory [nutch]  webapp=/solr path=/update params={waitSearcher=true&commit=true&softCommit=false&wt=javabin&version=2}{commit=} 0 1
2017-06-20 14:54:43.139 INFO  (qtp1205044462-19) [   x:nutch] o.a.s.u.p.LogUpdateProcessorFactory [nutch]  webapp=/solr path=/update params={wt=javabin&version=2}{add=[https://barnet.gov.uk/citizen-home/Downloads/Annual-accounts.html (1570735896928452608), https://barnet.gov.uk/citizen-home/Downloads/application-to-reregister-a-childs-birth.html (1570735896934744064), https://barnet.gov.uk/citizen-home/adult-social-care.html (1570735896937889792), https://barnet.gov.uk/citizen-home/adult-social-care/About-adult-social-care.html (1570735896943132672), https://barnet.gov.uk/citizen-home/adult-social-care/advice-and-support.html (1570735896947326976), https://barnet.gov.uk/citizen-home/adult-social-care/advice-and-support/transport-options/blue-badge-parking-permits.html (1570735896951521280), https://barnet.gov.uk/citizen-home/births-deaths-marriages-and-nationality.html (1570735896985075712), https://barnet.gov.uk/citizen-home/business.html (1570735896988221440), https://barnet.gov.uk/citizen-home/children-young-people-and-families.html (1570735896992415744), https://barnet.gov.uk/citizen-home/council-and-democracy.html (1570735897004998656), ... (82 adds)]} 0 382
2017-06-20 14:54:43.162 INFO  (qtp1205044462-18) [   x:nutch] o.a.s.u.DirectUpdateHandler2 start commit{,optimize=false,openSearcher=true,waitSearcher=true,expungeDeletes=false,softCommit=false,prepareCommit=false}
2017-06-20 14:54:43.162 INFO  (qtp1205044462-18) [   x:nutch] o.a.s.u.SolrIndexWriter Calling setCommitData with IW:org.apache.solr.update.SolrIndexWriter@39e6638a
2017-06-20 14:54:43.379 INFO  (qtp1205044462-18) [   x:nutch] o.a.s.s.SolrIndexSearcher Opening [Searcher@33562dbb[nutch] main]
2017-06-20 14:54:43.380 INFO  (qtp1205044462-18) [   x:nutch] o.a.s.u.DirectUpdateHandler2 end_commit_flush
2017-06-20 14:54:43.381 INFO  (searcherExecutor-7-thread-1-processing-x:nutch) [   x:nutch] o.a.s.c.QuerySenderListener QuerySenderListener sending requests to Searcher@33562dbb[nutch] main{ExitableDirectoryReader(UninvertingDirectoryReader(Uninverting(_f(6.6.0):C1) Uninverting(_g(6.6.0):C82)))}
2017-06-20 14:54:43.381 INFO  (searcherExecutor-7-thread-1-processing-x:nutch) [   x:nutch] o.a.s.c.QuerySenderListener QuerySenderListener done.
2017-06-20 14:54:43.381 INFO  (searcherExecutor-7-thread-1-processing-x:nutch) [   x:nutch] o.a.s.c.SolrCore [nutch] Registered new searcher Searcher@33562dbb[nutch] main{ExitableDirectoryReader(UninvertingDirectoryReader(Uninverting(_f(6.6.0):C1) Uninverting(_g(6.6.0):C82)))}
2017-06-20 14:54:43.391 INFO  (qtp1205044462-18) [   x:nutch] o.a.s.u.p.LogUpdateProcessorFactory [nutch]  webapp=/solr path=/update params={waitSearcher=true&commit=true&softCommit=false&wt=javabin&version=2}{commit=} 0 229
2017-06-20 14:54:43.982 INFO  (qtp1205044462-20) [   x:nutch] o.a.s.u.DirectUpdateHandler2 start commit{,optimize=false,openSearcher=true,waitSearcher=true,expungeDeletes=false,softCommit=false,prepareCommit=false}
2017-06-20 14:54:43.982 INFO  (qtp1205044462-20) [   x:nutch] o.a.s.u.DirectUpdateHandler2 No uncommitted changes. Skipping IW.commit.
2017-06-20 14:54:43.983 INFO  (qtp1205044462-20) [   x:nutch] o.a.s.u.DirectUpdateHandler2 end_commit_flush
2017-06-20 14:54:43.983 INFO  (qtp1205044462-20) [   x:nutch] o.a.s.u.p.LogUpdateProcessorFactory [nutch]  webapp=/solr path=/update params={waitSearcher=true&commit=true&softCommit=false&wt=javabin&version=2}{commit=} 0 1
2017-06-20 14:54:46.474 INFO  (qtp1205044462-18) [   x:nutch] o.a.s.u.p.LogUpdateProcessorFactory [nutch]  webapp=/solr path=/update params={wt=javabin&version=2}{delete=[https://www.barnet.gov.uk/citizen-home/parking-roads-and-pavements/Parking/parking-permits.html (-1570735900824961024), https://barnet.gov.uk/citizen-home (-1570735900824961025)]} 0 2
2017-06-20 14:54:46.493 INFO  (qtp1205044462-16) [   x:nutch] o.a.s.u.DirectUpdateHandler2 start commit{,optimize=false,openSearcher=true,waitSearcher=true,expungeDeletes=false,softCommit=false,prepareCommit=false}
2017-06-20 14:54:46.493 INFO  (qtp1205044462-16) [   x:nutch] o.a.s.u.SolrIndexWriter Calling setCommitData with IW:org.apache.solr.update.SolrIndexWriter@39e6638a
2017-06-20 14:54:46.507 INFO  (qtp1205044462-16) [   x:nutch] o.a.s.s.SolrIndexSearcher Opening [Searcher@4bd1f908[nutch] main]
2017-06-20 14:54:46.508 INFO  (searcherExecutor-7-thread-1-processing-x:nutch) [   x:nutch] o.a.s.c.QuerySenderListener QuerySenderListener sending requests to Searcher@4bd1f908[nutch] main{ExitableDirectoryReader(UninvertingDirectoryReader(Uninverting(_g(6.6.0):C82/1:delGen=1)))}
2017-06-20 14:54:46.508 INFO  (searcherExecutor-7-thread-1-processing-x:nutch) [   x:nutch] o.a.s.c.QuerySenderListener QuerySenderListener done.
2017-06-20 14:54:46.508 INFO  (searcherExecutor-7-thread-1-processing-x:nutch) [   x:nutch] o.a.s.c.SolrCore [nutch] Registered new searcher Searcher@4bd1f908[nutch] main{ExitableDirectoryReader(UninvertingDirectoryReader(Uninverting(_g(6.6.0):C82/1:delGen=1)))}
2017-06-20 14:54:46.509 INFO  (qtp1205044462-16) [   x:nutch] o.a.s.u.DirectUpdateHandler2 end_commit_flush
2017-06-20 14:54:46.510 INFO  (qtp1205044462-16) [   x:nutch] o.a.s.u.p.LogUpdateProcessorFactory [nutch]  webapp=/solr path=/update params={waitSearcher=true&commit=true&softCommit=false&wt=javabin&version=2}{commit=} 0 17
2017-06-20 14:55:13.051 INFO  (qtp1205044462-18) [   ] o.a.s.c.TransientSolrCoreCacheDefault Allocating transient cache for 2147483647 transient cores
2017-06-20 14:55:13.939 INFO  (qtp1205044462-19) [   ] o.a.s.s.HttpSolrCall [admin] webapp=null path=/admin/cores params={indexInfo=false&wt=json&_=1497970513641} status=0 QTime=1
2017-06-20 14:55:13.948 INFO  (qtp1205044462-12) [   x:nutch] o.a.s.c.S.Request [nutch]  webapp=/solr path=/admin/luke params={show=schema&wt=json&_=1497970513875} status=0 QTime=9
2017-06-20 14:55:13.966 INFO  (qtp1205044462-20) [   ] o.a.s.s.HttpSolrCall [admin] webapp=null path=/admin/info/system params={wt=json&_=1497970513642} status=0 QTime=31
2017-06-20 14:55:13.985 INFO  (qtp1205044462-17) [   x:nutch] o.a.s.c.S.Request [nutch]  webapp=/solr path=/config params={wt=json&_=1497970513875} status=0 QTime=10
2017-06-20 14:55:14.099 INFO  (qtp1205044462-13) [   x:nutch] o.a.s.c.S.Request [nutch]  webapp=/solr path=/admin/luke params={numTerms=0&wt=json&_=1497970513875} status=0 QTime=4
2017-06-20 14:55:18.343 INFO  (qtp1205044462-16) [   ] o.a.s.s.HttpSolrCall [admin] webapp=null path=/admin/cores params={indexInfo=false&wt=json&_=1497970513641} status=0 QTime=0
2017-06-20 14:55:18.353 INFO  (qtp1205044462-19) [   ] o.a.s.s.HttpSolrCall [admin] webapp=null path=/admin/info/system params={wt=json&_=1497970513642} status=0 QTime=9
2017-06-20 14:55:18.354 INFO  (qtp1205044462-14) [   x:nutch] o.a.s.c.S.Request [nutch]  webapp=/solr path=/admin/luke params={show=schema&wt=json&_=1497970513875} status=0 QTime=2
2017-06-20 14:55:18.377 INFO  (qtp1205044462-16) [   x:nutch] o.a.s.c.S.Request [nutch]  webapp=/solr path=/config params={wt=json&_=1497970513875} status=0 QTime=0
2017-06-20 14:55:18.425 INFO  (qtp1205044462-12) [   x:nutch] o.a.s.c.S.Request [nutch]  webapp=/solr path=/admin/luke params={numTerms=0&wt=json&_=1497970513875} status=0 QTime=1
2017-06-20 14:55:19.783 INFO  (qtp1205044462-21) [   x:nutch] o.a.s.c.S.Request [nutch]  webapp=/solr path=/admin/luke params={fl=headings&wt=json&_=1497970513875} status=0 QTime=10
2017-06-20 14:55:30.986 INFO  (qtp1205044462-19) [   ] o.a.s.s.HttpSolrCall [admin] webapp=null path=/admin/cores params={indexInfo=false&wt=json&_=1497970513641} status=0 QTime=0
2017-06-20 14:55:31.004 INFO  (qtp1205044462-13) [   ] o.a.s.s.HttpSolrCall [admin] webapp=null path=/admin/info/system params={wt=json&_=1497970513642} status=0 QTime=15
2017-06-20 14:55:31.020 INFO  (qtp1205044462-17) [   x:nutch] o.a.s.c.S.Request [nutch]  webapp=/solr path=/select params={q={!term+f%3Dheadings}Advice+on+staying+safe+during+the+heatwave&indent=on&wt=json&_=1497970530919} hits=30 status=0 QTime=30
2017-06-20 15:04:04.530 INFO  (ShutdownMonitor) [   ] o.a.s.c.CoreContainer Shutting down CoreContainer instance=388357135
2017-06-20 15:04:04.531 INFO  (ShutdownMonitor) [   ] o.a.s.m.SolrMetricManager Closing metric reporters for: solr.node
2017-06-20 15:04:04.531 INFO  (ShutdownMonitor) [   ] o.a.s.m.SolrMetricManager Closing metric reporters for: solr.jvm
2017-06-20 15:04:04.531 INFO  (ShutdownMonitor) [   ] o.a.s.m.SolrMetricManager Closing metric reporters for: solr.jetty
2017-06-20 15:04:04.537 INFO  (coreCloseExecutor-12-thread-1) [   x:nutch] o.a.s.c.SolrCore [nutch]  CLOSING SolrCore org.apache.solr.core.SolrCore@575b2f60
2017-06-20 15:04:04.551 INFO  (coreCloseExecutor-12-thread-1) [   x:nutch] o.a.s.m.SolrMetricManager Closing metric reporters for: solr.core.nutch
